"X1","X2","X3","X4","X5","X6","X7","X8","X9","X10","target"
1.76,0.13,1.13,1.15,0.52,1.07,0.36,0.27,0.61,1.7,1.31
1.43,1.03,1.4,1.96,0.78,1.26,0.92,0.46,0.97,0.29,1.36
1.08,1.54,0.1,0.02,1.8,1.94,1.53,1.19,1.21,1.27,1.04
0.48,1.41,1.07,1.76,0.03,1.72,1.26,0.56,1.08,1.94,0.71
0.82,1.56,0.72,0.01,1.43,0.92,1.18,1.42,1.38,0.88,1.58
0.97,1.5,1.36,0.23,0.83,1.37,0.99,0.08,0.49,1.53,1.94
0.04,0.17,0.48,1.7,1.12,0.14,1.57,1.84,1.29,1.91,0.39
1.07,1.05,0.37,1.23,0.08,0.91,0.01,0.38,1.51,0.14,1.45
1.93,0.05,1.43,1.04,0.02,1.17,0.48,1,1.91,0.7,0.59
1.35,1.07,0.95,1.01,0.33,1.87,1.82,0.52,1.05,0.6,0.33
1.28,0.55,0.75,1.97,0.22,1.33,1.64,0.06,0.49,0.1,0.18
0.65,0.21,0.01,1.85,1.47,0.68,1.48,0.01,1.07,0.9,0.53
1.06,1.43,0.3,1.65,0.87,1.51,1.15,1.45,0.38,0.15,0.53
1.52,1.22,1.08,1.62,0.71,1.96,1.24,1.14,1.22,1.46,0.75
1.54,1.12,1.46,0.76,1.66,0.88,1.86,1.45,0.18,1.36,0.36
1.06,1.31,1.34,0.66,0.58,0.4,0.94,1.96,1.03,0.63,1.84
1.98,1.77,1.82,1.17,1.88,1.37,0.17,0.52,0.86,0.06,0.95
1.15,1.76,1.11,1.38,1.32,1.79,0,0.76,0.23,0.05,1.37
0.78,1.02,1.19,0.18,1.7,0.36,0.55,1.49,0.15,0.11,1.9
0.53,1.72,0.41,0.32,0.71,0.63,0.95,1.48,0.24,0.74,1.94
0.47,1.76,1.22,1.91,0.45,1.91,1.49,1.92,0.03,0.7,1.75
1.22,1.77,1.11,1.44,1.78,1.99,1.72,1.54,0.36,1.19,1.7
0.27,0.34,1.42,1.07,1.53,0.47,0.61,0.25,1.04,1.81,1.1
1.24,1.05,0.45,1.4,0.44,1.02,0.14,1.01,0.22,0.38,1.2
1.81,0.16,1.82,1.35,0.92,0.54,1.74,0.42,1.21,0.82,1.97
1.32,0.11,1.61,0.02,0.79,0.28,0.3,0.42,0.07,1.13,1.41
0.45,1.71,1.32,0.58,0.96,1.92,0.96,0.42,1.47,0.11,1.78
0.8,1.06,1.61,0.87,1.81,0.38,1.51,1.23,0.78,0.93,0.99
0.86,0.02,1.17,1.47,1.68,0.68,1.48,0.94,0.55,1.2,1.53
1.55,0.57,0.14,0.78,1.19,1.43,0.09,1.17,0.75,1.59,1.08
0.92,1.41,1.03,0.54,0.02,0.86,1.05,0.63,1.07,0.18,0.15
1.95,1.58,1.51,0.31,1.52,1.36,0.46,0.86,0.4,1.66,1.49
0.96,0.76,1.56,1.9,0.22,1.67,1.98,1.5,1.6,1.64,0.36
1.53,0.79,1.75,1.46,1.43,1.85,1.61,1.01,1.34,1.2,1.24
1.7,1.17,0.26,1.33,0.09,0.37,0.66,1.2,1.15,0.69,0.29
0.14,1.39,0.12,1.82,1.1,0.98,0.6,1.26,0.81,1.92,1.26
1.69,0.6,1.35,1.61,1.05,1.77,0.24,0.16,1.39,0.97,0.67
0.89,1.57,1.71,0.01,0.01,0.08,1.5,0.66,0.25,1.69,0.01
0.72,0.08,1.43,1.45,1.21,0.91,1.11,1.24,0.99,1.28,0.5
1.26,0.82,0.71,1.86,0.28,1.27,0.33,0.42,1.63,0.03,1.78
1.97,0.87,1.94,1.75,0.39,0.29,0.99,0.33,0.57,1.33,1.27
0.19,0.46,0.85,1.57,0.19,1.37,0.4,1.09,1.63,0.34,1.69
0.81,1.44,0.85,1.93,1.08,1.22,1.73,1.36,1.99,1.66,1.86
1.49,1.27,0.36,1.55,1.95,1.05,0.91,1.49,1.97,1.37,0.74
0.94,0.06,1.73,1.48,0.24,0.81,0.01,1.85,1.7,1.29,0.83
0.15,1.87,1.72,1.65,1.67,1.63,1.54,1.17,0.42,1.75,1.24
1.38,0.79,1.91,0.82,1.28,1.65,0.57,0.81,0.03,0.99,0.29
0.57,0.29,1.24,1.66,0.61,1.85,0.42,1.58,1.17,1.77,1.67
1.03,0.74,1.29,0.82,1.64,0.28,1.31,1.43,0.94,0.54,1.51
0.64,1.83,0.51,0.25,0.55,1.75,1.93,1.54,1.32,1.29,1.8
0.24,0.83,1.57,1.02,0.02,1.65,0.43,1.31,1.29,0.59,1.31
1.02,0.3,1.74,0.1,1.14,0.39,0.95,0.66,1.15,1.54,1.51
0.1,1.27,1.28,1.07,0.34,0.55,0.53,1.65,1.48,0.85,1.12
0.47,0.89,0.71,1.19,1.35,0.47,1.13,0.63,1.02,0.37,0.93
0.85,0.65,1.76,1.77,1.25,0.49,0.12,0.03,0.05,0.97,1.52
1.7,0.03,0.25,1.92,0.2,1.33,0.33,1.81,1.88,1.3,1.03
0.63,1.64,1.81,0.68,0.13,1.92,0.65,0.86,0.31,1.22,1.17
1.78,1.12,1.9,1.73,1.73,1.78,0.54,0.33,1.27,0.59,0.6
0.48,0.08,0.07,0.81,0.1,1.68,1.94,0.28,0.06,1.3,0.65
0.37,1.58,0.87,0.18,1.24,0.11,0.08,1.39,0.8,1.74,1.88
1.09,0.41,1.35,0.76,0.12,0.17,1.68,0.77,0.05,0.89,1.28
0.46,0.34,0.95,1.18,1.98,0.25,1.87,1.57,1.72,0.06,0.66
1.55,1.29,0.48,1.1,1.53,1.23,0.44,1.07,0.4,0.14,1.82
1.31,1.18,1.61,1.56,0.25,0.34,0.81,1.19,1.33,0.02,1.84
1.38,0.79,0.33,1.91,1.5,1.56,1.97,1.25,1.15,0.38,0.75
0.2,1.2,1.49,0.1,1.56,1.7,1.05,1.49,1.37,1.75,0.94
0.64,1.73,1.9,0.6,1.93,1.88,1.31,1.4,0.13,1.78,0.35
1.1,1.72,0.6,0.46,1.69,0.91,1.56,1.85,1.81,0.7,1.5
1.79,1.73,0.75,1.06,1.56,1.43,1.73,1.83,1.88,1.13,1.6
1.94,0.25,1.53,1.79,1.9,0.15,0.21,1.05,1.07,1.3,1.95
1.75,0.44,0.75,0.3,0.15,1.94,0.51,0.82,1.57,0.31,0.22
0.39,0.41,0.81,0.28,0.84,0.99,0.24,0.7,1.37,0.36,0.95
0.71,0.64,0.53,1.83,0.87,1.11,0.06,1.33,1.2,1.22,0.88
0.54,1.83,1.39,0.16,0.05,1.12,0.28,1.67,1.44,1.05,0.43
0.11,1.44,1.44,0.4,1.17,1.35,1.16,1.45,0.92,0.17,0.33
1.69,0.61,0.02,1.92,0.9,1.66,1.82,1.32,0.44,0.78,1.39
0.06,0.58,0.01,0.39,1.41,0.13,1.51,1.62,1.53,1.46,0.68
0.25,0.68,1.44,1.03,1.71,0.27,0.19,0.99,1.41,0.66,0.81
0.48,1.4,0.38,1.58,1.31,0.79,0.52,0.36,0.6,1.22,1.74
0.59,0.48,0.8,1.38,0.65,0.25,0.76,1.95,1.92,0.78,1.78
0.75,0.51,1.8,0.05,1.78,0.96,1.13,0.75,1.95,0.21,0.72
1.39,0.96,0.06,1.4,1.29,1.47,0.39,0.15,0.64,1.93,1.75
1.46,0.98,1.87,1.78,1.18,0.41,1.34,0.17,1.92,1.92,0.65
1.48,1.15,0.33,0.99,1.68,1.17,0.93,1.67,1.05,0.89,1.5
1,1.41,0.67,0.66,0.67,0.22,0.52,0.48,0.18,0.09,1.51
0.01,0.4,0.52,1.04,1.92,1.54,1.77,0.02,1.39,0.55,1.24
0.32,0.79,1.77,0.31,1.62,0.99,0.01,0.95,1.92,0.03,0.56
1.95,1.18,0.9,0.9,0.4,1.13,1.79,0.44,0.14,1.26,1.68
0.45,1.24,1.11,1.59,0.45,0.15,1.83,1.85,1.71,0.16,1.49
1.44,1.58,0.87,1.2,1.18,1.69,1.5,1.48,1.82,1.51,1.77
1.41,0.4,1.99,0.62,0.77,0.84,0.34,1.48,0.03,0.43,1.79
1.77,0.64,0.23,0.27,1.92,1.42,0.65,1.7,0.64,1.21,0.93
0.49,0.77,1.54,1.55,1,1.75,0.57,1,0.62,1.03,1.9
1.17,1.1,0.55,1.34,1.14,1.24,0.36,0.65,1.44,1.23,1.03
1.98,0.6,0.26,0.26,1.69,0.8,1.27,0.32,1.58,0.88,1.52
0.02,0.85,1.47,0.28,1.72,1.2,1.67,0.02,0.1,1.73,0.72
1.07,1.62,0.46,1.09,0.04,1.89,1.45,0.66,0.8,0.46,0.15
0.94,1.85,0.18,1.99,1.9,0.75,1.33,1.25,1.56,1.64,0.24
1.17,0.75,1.15,1.95,0.08,0.01,1.44,1.61,1.58,0.32,1.43
1.15,1.79,1.09,0.34,1.03,1.13,0.8,0.62,0.12,0.01,0.65
0.33,1.64,0.44,0.22,1.09,1.01,1.99,0.76,0.58,1.33,1.43
1.74,1.49,1.14,1.29,0.41,0.14,0.65,1.53,1.57,1.28,0.32
1.99,1.14,0.35,1.04,0.79,1.43,0.45,0.88,1.07,1.95,0.88
1.98,0.37,1.92,0.86,0.58,1.3,0.59,1.97,0.22,0.81,1.2
0.18,1.11,1.98,1.43,0.49,1.17,0.2,1.17,0.99,0.77,1.65
1.64,1.18,1.73,1.53,0.48,0.67,0.18,0.52,1.88,1.33,1.47
1.03,1.41,0.63,1.46,0.86,1.42,0.22,0.35,0.45,0.56,1.4
0.06,0.3,0.53,0.5,0.74,1.14,0.78,0.61,1.19,0.16,0.89
1.6,1.79,0.08,1.14,0.7,1.77,0.16,0.3,1.08,1.28,0.21
1.59,1.43,0.83,1.21,0.13,0.52,1.75,0.87,1.08,1.48,0.09
1.72,0.07,0.82,0.18,1.78,1.67,0.76,0.13,0.01,1.36,0.08
1.43,0.82,0.39,0.97,0.12,0.78,0.09,1.82,0.94,1.71,1.92
1.79,0.75,1.41,0.73,0.48,1.17,0.76,1.62,1.97,1.05,1.99
0.62,1.97,0.48,0.78,0.31,0.35,0.6,1.6,0.76,1.48,0.6
0.41,0.88,0.58,1.88,0.25,1.23,0.48,1.24,0.82,0.8,0.2
1.23,0.15,0.63,0.36,0.53,1.76,0,1.42,1.61,0.38,0.48
0.25,0.71,1.68,0.52,1.38,0.32,0.79,1.64,0.91,1.78,1.3
1.69,1.43,0.27,0.16,0.61,0.06,1.86,1.93,1.58,0.1,0.78
0.85,1.85,0.61,1.3,1.43,1.35,0.71,0.6,1.99,1.52,0.4
1.4,1.11,1.62,0.69,0.52,1.22,1.24,0.95,0.62,0.78,0.14
1.74,0.1,0.07,1.08,0.08,0.7,0.19,1.44,0.95,1.45,1.96
0.81,1.19,0.65,0.18,1.65,0.77,1.31,1.97,1.58,0.3,0.81
0.83,1.57,1.36,1.31,0.33,1.74,1.48,0.73,1.83,1.22,1.7
1.82,1.53,0.07,0.91,0.81,1.38,0.07,0.57,1.11,1.76,0.85
0.54,1.84,1.91,1.35,0.9,1.22,0.25,1.74,0.51,0.5,0.47
1.73,1.44,1.64,1.16,1.56,0.12,0.14,0.37,1.02,1.02,0.4
1.89,1.37,1.53,1.44,0.36,1.16,1.76,1.38,1.15,0.71,0.79
0.7,0.14,1.14,0.83,1.54,0.57,0.68,0.57,1.75,1.69,1.47
1.72,1.55,1.21,1.82,0.86,1.61,1.97,1.35,0.21,0.1,1.27
0.93,1.12,0.86,1.69,1.72,0.26,0.79,1.99,1.58,0.39,0.14
0.99,1.39,0.55,0.23,0.12,1.33,0.09,0.3,0.11,1.96,1.75
1.11,0.65,0.07,1.91,0.98,0.47,0.96,1.25,1.09,1.06,0.02
0.07,0.19,0.01,1.12,0.63,0.84,1.99,0.88,0.55,0.3,1.33
0.56,0.01,1.86,1,0.72,1.87,0.65,1.14,0.05,0.54,0.08
1.69,0.66,1.75,1.63,1.29,1.48,1.44,1.01,1.31,0.75,1.92
1.02,1.98,0.39,1.03,0.78,0.38,0.77,0.98,1.49,1.24,1.28
0.03,0.65,1.71,1.09,0.9,0.4,0.04,1.97,1.05,0.67,0.63
0,0.61,0.03,0.02,0.51,1.94,1.88,0.7,1.84,1.56,1.4
0.63,0.34,1.37,1.21,1.99,0.38,0.46,1.14,1.94,0.83,0.03
1.41,1.71,0.48,0.03,0.72,1.46,1.03,0.55,1.19,0.55,0.59
0.02,0.19,1.74,1.71,1.42,0.07,1.83,0.49,1.97,0.53,1.36
1.06,0.18,1.89,1.61,0.42,1.67,1.99,1.13,1.2,1.59,0.1
1.46,0.37,1.66,1.54,0.72,0.19,0.8,1.92,0.34,1.5,0.7
0.34,0.37,0.08,1.61,1.1,1.14,0.74,1.23,0.49,1.65,0.21
0.88,0.47,1.84,1.82,1.09,0.93,1.45,0.23,1.79,0.62,0.89
0.8,0.78,0.28,1.85,1.66,1.18,1.77,0.9,1.16,0.14,0.67
0.89,1.12,0.05,1.56,0.69,0.77,1.52,1.24,0.12,0.1,0.21
0.6,1.7,1.67,0.66,0.91,0.53,1.79,1.06,1.72,0.92,0.07
0.53,0.22,1.81,1.82,1.73,1.49,1.41,1.23,1.71,1.48,0.15
1.7,0.11,0.24,0.79,0.82,0.92,1.94,0.16,1.81,0.27,0.49
0.96,1.66,1.57,1.04,0.38,1.89,0.88,0.94,1.9,1.33,1.51
1.14,1.65,0.96,0.34,0.98,1.56,0.27,1.29,1.26,0.12,1.53
0.82,1.83,0.98,1.05,1.29,1.66,1.05,1.51,0.07,0.45,1.26
1.26,0.83,0.56,1.71,1.33,1.01,0.65,1.62,0.93,0.73,1.03
0.8,0.56,0.85,1.76,0.99,1.5,0.93,1.61,0.26,1.95,1.14
1.3,1.72,0.45,1.66,1.16,1.17,1.64,0.68,2,0.18,0.69
1.72,1.84,1.59,0.5,0.75,0.51,0.33,1.11,0.21,1.76,1.11
0.01,1.7,1.29,0.53,0.57,1.07,0.89,0.49,0.28,0.81,1.88
1.44,1.17,0.82,1.68,0.11,1.29,0.9,0.1,0.72,1.51,0.54
1.68,1.93,1.47,0.66,0.37,1.99,0.56,1.56,0.91,0.14,0.41
0.53,0.22,1.11,1.55,1.68,1.22,0.69,0.21,1.2,1.19,1.2
1.01,0.27,0.02,1.66,0.61,1.19,1.36,1.06,1.4,1.66,1.54
0.12,1.43,0.17,0.97,1.94,0.74,1.27,1.72,1.47,0.04,1.28
0.66,0.67,0.82,1.73,0.48,0.71,1.31,0.43,0.06,0.38,0.03
1.77,0.84,1.19,1.92,1.44,1.32,1.86,0.82,1.17,0.19,0.2
0.53,1.3,1.1,0.2,1.39,0.11,0.21,0.32,1.03,1.91,0.8
0.38,1.21,0.45,0.06,1.74,0.42,0.75,1.41,1.08,1.8,0.36
1.87,1.06,0.91,1.82,1.86,1.84,0.3,1.97,1.17,1.53,1.81
0.34,1.63,1.02,0.3,0.25,0.58,0.24,1.12,0.49,1.5,0.46
1.26,1.05,0.14,0.87,1.97,0.8,0.33,0.07,1.27,1.34,1.64
0.15,0.36,1.49,1.5,0.64,0.12,0.4,0.55,1.02,1.5,0.75
1.77,1.46,0.54,1.34,1.27,1.57,0.57,1.41,1.6,1.47,0.6
0.41,0.47,1.04,0.7,1.81,0.87,0.87,0.03,1.81,1.98,1.52
0.04,1.43,1.21,0.73,1.15,0.25,0.34,0.92,1.57,0.55,1.33
0.38,0.72,0.09,1.6,1.33,1.45,0.95,1.97,0.54,0.25,1.47
1.08,0.3,1.91,0.28,0.72,1.63,0.37,1.73,1.72,0.77,1.74
0.77,0.24,1.38,1.22,1.62,0.31,1.55,0.8,1.01,0.69,0.53
1.27,1.07,1.91,0.2,0.81,1.15,1.58,1.51,1.72,0.48,1.06
1.18,1.75,1.82,0.6,0.54,0.75,1.69,1.19,0.09,1.57,0.19
0.26,1.57,1.77,0.12,0.47,0.45,0.19,0.51,0.01,1.01,0.44
0.75,0.74,0.8,1.06,0.69,1.33,0.12,0.53,1.83,0.97,0.57
0.44,0.35,1.33,1.99,1.71,1.7,1.73,0.91,0.25,1.91,0.64
1.19,0.58,1.72,1.05,1.74,1.99,1.46,1.41,1.48,0.21,1.68
1.53,1.58,0.44,0.74,0.84,1.72,1.1,1.4,0.01,0.87,0.73
0.31,1.99,1.93,1.14,0.93,0.72,0.36,0.35,1.75,0.87,1.5
1.59,0.5,0.55,0.98,1.25,1.21,0.49,0.48,1.4,0.43,1.27
1.71,0.96,0.89,0.44,0.88,1.87,1.65,0.78,1.02,1.55,1.85
0.9,1.88,1.19,0.64,1.52,0.18,0.38,0.76,1.91,1.83,0.62
0.37,0.09,1.52,1.21,0.68,1.71,1.84,1.96,0.11,0.9,1.84
1.81,0.63,1.83,0.64,1.02,1.49,0.71,0.27,1.09,1,1.27
1.31,1.27,0.69,0.12,1.45,0.96,1.56,0.82,1.95,1.71,0.07
1.2,0.96,1.3,1.91,1.47,0.36,0.15,0.25,0.07,0.79,1.02
1.86,0.72,0.5,1.98,1.32,0.36,0.29,0.23,1.86,1.36,0.33
0.91,0.22,0.34,1.61,0.1,0.72,1.23,1.49,1.24,1.53,0.09
1.01,1.78,0.77,1.85,1.64,1.47,1.05,1.6,1.06,0.19,0.24
0.55,1.32,1.88,1.83,1.59,0.01,0.42,1.21,2,1.47,1.98
0.13,0.63,0.14,0.48,1.54,0.34,1.42,0.41,0.52,0.53,1.11
0.66,0.04,0.58,1.51,0.61,1.01,0.79,0.42,1.91,1.61,1.98
0.97,1.69,1.55,0.71,1.51,1.67,1.26,1.37,0.93,0.87,1.98
1.17,1.44,0.77,1.62,1.24,1.91,0.09,0.16,0.52,1.23,1.03
0.08,0.78,1.19,0.99,0.9,1.28,0.3,0.71,1.3,1.25,0.77
0.46,0.46,1.35,0.01,0.31,0.26,0.24,0.6,0.13,1,0.54
1.76,0.15,0.68,0.92,1.88,0.49,1.12,1.4,0.87,1.25,1.11
0.37,0.04,1.26,0.62,0.92,0.07,1.61,1.28,1.76,1.52,0.57
1.4,1.48,0.89,0.05,1.78,0.45,1.74,1.57,1.02,1.59,1.74
1.07,0.03,0.21,1.36,0.19,0.57,0.4,1.2,1.53,0.34,1.81
1.03,1.32,0.19,1.38,0.52,1.72,1.88,0.45,1.22,0.89,1.66
0.36,1.93,1.14,1.82,0.32,1.86,1.96,1.2,1.62,1.09,1.84
1.87,0.05,0.84,0.46,1.63,1.59,1.72,0.87,1.03,1.28,1.85
0.17,0.77,0.49,1.93,0.66,1.33,1.21,0.96,0.43,0.85,0.18
0.26,0.16,1.67,1.86,0.29,0.09,1.94,1.57,0.18,0.81,0.56
1.41,0.53,1.18,1.4,1.81,1.43,1.65,0.76,1.54,1.88,1.19
1.55,0.73,0.5,1.2,0.95,0.37,0.12,0.05,1.37,1.44,1.76
1.57,1,1.46,0.7,0.33,0.14,1.72,0.51,0.14,1.82,0.99
1.6,1.36,0.91,0.32,1.57,0.72,0.77,1.72,1.84,1.75,0.67
0.2,1.25,1.84,0.11,1.61,1.68,0.3,0.45,1.41,1.88,0.45
1.84,1.32,0.64,1.63,0.3,0.42,1.25,1.1,1.38,0.09,0.18
1.97,1.81,1.07,1.88,0.83,0.58,0.07,1.71,0.84,0.44,0.92
1.05,1.67,1.6,1.51,1.84,1.92,1.28,1.07,1.6,1.17,0.97
1.75,1.15,1.11,1.47,0.1,1.77,1.47,0.2,1.26,0.07,1.18
0.15,0.55,1.9,0.27,0.2,1.01,2,0.92,1.61,1.31,1.22
1.29,1.33,0.88,1.05,1.42,1.72,0.12,1.61,1.01,0.23,0.49
1.91,0.81,0.85,0.16,0.85,0.17,1.82,1.92,1,1.19,1.03
0.05,0.49,0.35,0.6,1.52,1.68,0.3,1.29,0.2,1.13,0.88
1.25,0.32,1.1,0.52,1.79,0.74,0.74,1.25,0.33,0.24,1.35
1.16,1.26,0.99,1.12,1.74,1.52,0.74,1.2,0.95,0.7,0.78
1.8,0.42,0.63,1.16,1.35,1.31,1.93,0.89,0.3,1.87,1.13
0.33,0.42,0.75,0.76,0.04,0.62,0.18,0.18,0.23,1.25,0.71
1.43,1.88,1.4,0.43,1.92,1.37,1.57,1.56,1.27,1.07,0.84
0.12,1.91,0.12,1.58,1,1.66,0.5,1.82,1.67,0.97,0.95
0.54,1.09,1.37,1.47,1.08,1.91,0.03,1.18,0.09,1.1,1.82
0.82,0.51,0.33,1.92,1.75,0.17,1.1,1.61,0.68,1.12,1.13
1.27,1.76,0.75,1.18,1.09,0.77,0.91,0.64,1.03,1.78,0.74
1.28,1.37,1.1,0.21,1.8,0.39,0.98,0.75,1.07,1.26,0.65
0.9,1.45,1.4,0.23,0.12,0.78,0.82,1.27,0,1,0.91
1.82,1.14,1.48,1.83,1.2,1.13,1.58,0.71,1.07,0.42,0.06
0.2,1.75,1.79,1.14,0.07,0.51,1.18,1.67,0.86,1.82,1.23
1.59,0.6,1.61,1.2,1.5,1.74,0.34,0.86,1.17,0.49,0.72
1.07,1.49,1.96,1.93,0.2,0.73,0.93,1.76,1.7,1.06,1.58
1.01,1.55,1.74,0.03,0.17,1.36,0.55,1.78,0.07,0.44,1.33
0.09,0.93,1.12,0.86,0.54,0.74,1.66,1.79,0.43,1.59,1.08
1.89,1.26,0.22,1.62,1.53,1.35,0.25,0.55,0.31,1.62,0.99
1.71,0.2,0.92,1.71,0.53,1.42,1.75,1.21,1.39,0.18,1.33
0.18,0.94,1.26,0.49,0.96,1.36,0.71,0.96,1.12,0.01,0.23
1.02,1.47,0.78,1.77,0.09,1.43,1.56,1.4,0.29,0.93,0.27
1.56,0.57,0.32,1.96,1.72,1.67,1.64,0.14,0.47,0.75,1.78
0.61,0.18,1.33,1.51,1.62,0.76,1.5,1.28,1.98,0.77,0.28
0.56,1.71,0.09,0.71,0.54,1.73,0.83,1.24,1.48,1.57,0.78
1.24,1.35,0.15,1.84,1.81,1.06,1.59,0.95,1.38,0.32,0.5
0.22,1.25,1.33,1.89,1.73,0.27,1.58,1.18,1.87,1.89,1.42
0.86,0.87,0.89,1.12,1.04,0.85,1.16,1.73,1.41,0.39,1.12
0.34,1.38,0.47,1.68,0.31,0.12,1.09,1.8,1.48,1.18,0.1
1.56,0.93,1.78,1.03,0.16,0.68,1.97,1.18,1.68,1.14,1.89
1.28,0.16,1.32,0.14,0.38,1.89,0.55,1.93,1.56,0.39,0.97
1.76,1.84,0.38,0.52,1.14,1.9,1.4,0.79,0.56,0.79,1.2
0.71,0.24,0.88,0.43,1.33,0.77,0.43,1.57,0.88,0.63,1.24
1.3,1.91,1.13,0.46,1.96,1.74,1.24,1.13,1.02,0.65,0.49
1.82,1.04,0.61,1.33,1.81,1.05,0.3,1.44,1.92,0.92,0.4
0.87,0.06,1.41,0.99,0.2,1.71,1.77,0.61,1.53,1.33,1.17
1.27,0.22,1.35,0.61,0.5,0.21,0.89,0.04,1.73,1.76,1.81
1.05,1.93,1.24,1.81,1.85,0.63,1.93,0.78,1.66,0.54,1.2
0.59,1.29,1.51,1.46,1.69,1.06,0.28,0.81,1.65,0.06,1.66
0.9,1.68,1,1.8,0.61,0.03,1.3,1.09,0.39,0.74,0.75
0.9,1.31,1.27,1.7,1.6,1.61,1.37,0.25,1.61,0.77,1.43
1.45,0.99,0.31,1.69,0.85,0.27,1.37,0.49,0.15,0.31,1.91
1.14,0.1,1.38,1.47,0.65,1.65,0.72,0.36,0.16,0.12,1.49
1.5,0.19,1.55,1.05,0.02,1.91,0.93,1.94,0.5,1.72,0.59
1.49,1.7,1.2,0.98,1.3,1.95,1.46,1.8,1.21,0.9,1.24
0.54,1.54,1.61,0.16,0.28,0.92,0.23,0.55,1.61,1.92,1.38
0.51,1.63,1.18,1.52,0.96,1.87,1.02,1.27,1.85,1.34,0.02
0.5,1.55,0.81,0.48,1.15,0.73,1.48,1.86,0.48,0.05,1.97
0.13,0.36,1.63,1.73,0.34,0.9,0.54,1.79,1.58,0.92,1.94
1.3,0.02,0.29,1.34,1.02,0.4,1.74,1.9,0.71,0.36,0.83
1.01,1.49,1.71,1.47,0.21,1.01,1.54,0.85,1.02,1.58,1.02
1.96,0.04,1.36,1.54,0.42,1.73,1.74,0.5,0.03,1.94,0.06
1.23,0.05,0.25,0.99,0.03,0.07,0.5,0.62,0.43,1.75,1.39
0.07,1.59,1.76,0.28,0.68,1.12,0.62,0.5,1.25,1.55,1.29
1.8,0.27,1.73,0.73,0.17,0.73,1.64,0.8,0.01,0.03,1.35
1.76,0.96,1.87,0.78,0.01,1.24,0.09,0.62,0.05,0.99,0.38
1.18,1.96,1.18,0.9,1.97,0.63,1.14,0.68,1.44,1.75,0.15
1.73,1.47,0.28,1.84,0.64,0.62,0.14,1.85,0.22,1.61,1.46
0.13,1.11,0.58,0.73,1.96,0.86,0.56,1.06,0.98,0.23,0.85
0.1,1.68,1.79,1.04,1.18,1.7,0.08,1.18,1.27,1.03,1.58
1.19,0.03,0.31,1.41,1.77,1.48,1.25,1.07,1.16,1.46,0.16
1.07,0.79,0.71,0.66,1.75,0.43,1.41,0.59,1.46,0.81,0.71
1.06,0.95,0.49,0.99,0.62,1.58,0.46,0.76,0.61,1.42,1.84
1.71,1.01,1.4,0.84,0.76,0.07,0.98,0.45,1.32,1.38,1.91
1.88,1.52,0.43,1.55,0.23,1.72,1,0.47,0.89,1.06,0.94
0.25,1.84,1.28,1.52,1.03,1.72,1.34,1.07,1.33,1.89,1.9
1.03,0.84,0.27,1.1,0.38,0.17,1.27,1.05,0.75,1.56,1.4
1.56,1.94,0.76,0.3,1.78,1.06,1.32,0.06,0.23,1.69,1.73
1.15,0.55,1.22,0.19,0.61,0.78,0.37,0.45,1.72,1.02,1.55
1.73,1.53,1.17,1.4,0.54,0.95,1.88,1.93,0.91,1.79,1.71
0.07,1.04,0.23,0.19,0.15,1.87,0.11,1.48,1.39,0.7,1.97
1.08,0.84,0.01,1.29,0.79,0.8,1.4,0.17,0.68,1.21,1.52
0.59,0.64,1.6,0.82,1.75,1.37,0.87,1.76,1.63,0.35,0.94
1.71,0.39,1.16,1.82,0.92,0.15,1.53,1.18,0.06,1.29,0.09
0.71,0.78,0.3,1.08,1.81,1.77,0.98,0.41,0.06,0.39,0.79
0.94,0.84,1.58,1.34,0.79,1.07,1.44,1.67,1.51,1.91,0.66
0.26,0.07,1.92,0.06,1.68,0.73,1.51,1.64,0.5,1.73,0.48
0.14,0.77,0.72,0.38,1.63,1.1,1.41,1.37,0.97,0.39,1.31
0.97,1.91,0.5,0.29,0.02,0.64,0.14,1.85,1.11,0.05,0.24
1.94,1.3,0.03,0.82,1.99,1.55,0.16,0.94,1.17,0.03,1.26
0.81,1.16,1.41,0.67,0.43,1.44,0.41,0.59,0.63,1.76,1.2
1.36,1.75,0.03,1.19,0.46,0.98,1.24,0.14,0.41,0.44,1.26
0.71,0.69,0.22,1.56,0.14,1,0.96,0.19,1.19,1.25,0.72
0.34,1.66,0.28,0.87,0.61,1.62,0.85,0.86,1.57,1.13,1.89
1.97,0.25,1.83,1.25,0.84,0.98,0.8,1.81,0.81,0.62,1.39
1.42,1.48,1.95,0.69,1.27,0.53,0.74,0.42,1,1.3,0.79
1.14,0.86,0.77,0.94,1.57,0.29,1.67,0.64,0.79,0.21,1.89
0.77,1.65,0.29,1.33,0.91,1.24,0.8,0.14,1.42,1.73,1.35
0.59,1.2,1.75,2,1.43,1.51,0.89,0.21,0.94,1.92,1.06
1.12,1.18,0.68,1.22,1.72,1.87,0.47,0.07,0.56,1.62,1.02
1.79,0.75,1.7,1.56,1.69,0.95,1.08,0.01,0.95,1.69,0.05
1.56,1.2,1.04,1.37,1.4,0.51,0.95,0.5,1.86,0.16,0.58
0.59,0.15,1.12,0.33,0.89,1.91,1.34,1.55,1.31,1.47,1.14
0.97,0.69,1.61,1.27,0.68,1.32,0.28,0.79,0.49,0.27,0.69
0.42,0.72,1.69,0.14,0.87,1.17,1.87,0.16,0.25,1.81,0.64
0.43,1.07,1.29,1.76,1.12,0.3,1.87,0.26,1.12,1.15,0.37
1.38,1.9,1.2,1.94,1.44,0.33,1.69,1.73,1.52,0.26,0.56
1.53,1.48,0.13,0.94,0.16,0.88,1.47,0.2,0.76,1.8,0.16
1.93,0.63,1.98,0.19,0.23,1.72,0.08,1.41,1.73,0.96,1.03
0.47,0.96,0.35,0.47,0.78,1.41,1.42,1.74,0.64,1.46,1.89
1.81,1.98,1.67,0.48,0.94,1.77,0.71,1.63,1.43,1.89,0.15
1.83,1.91,2,0.6,0.02,0.17,1.93,0.59,0.31,1,1.86
0.53,0.99,1.15,1.76,1.86,1.37,0.94,0.99,1.81,1.13,1.57
1.61,1.49,0.69,0.89,1.69,1.36,1.88,1.48,1.98,1.75,1.02
1.13,1.7,1.25,0.12,0.85,1.49,0.98,0.41,1.49,1.5,1.66
0.27,1.45,0.92,1.48,1.77,0.56,0.61,1.24,0.74,0.92,1.11
0.48,0.6,0.45,0.3,0.08,1.68,0.98,0.89,0.34,0.36,0.92
0.53,0.53,0.4,0.76,1.64,1.21,0.09,0.88,0.24,0.8,1.58
0.68,0.46,1.77,0.99,1.26,1.76,0.98,0.88,0.82,0.33,1.02
1.89,1.58,1.06,1.69,0.75,0.7,0.79,1.82,0.54,0.74,1.79
1.03,1.99,0.06,1.66,1.62,1.23,1.84,0,0.02,0.39,0.27
0.61,0.95,1.72,0.12,1.4,0.75,1.88,1.97,0.66,1.27,0.46
0.7,1.43,1.12,0.67,1.81,1.9,0.15,1.28,1.25,0,1.4
0.75,0.5,1.97,1.68,0.32,1.77,2,1.91,0.13,1.59,0.36
0.65,1.7,1.18,0.29,0.72,1.69,1.43,0.44,0.92,1.84,1.66
0.91,1.36,1.94,1.64,0.32,0.42,0.47,1.33,1.63,1.91,0.08
1.66,1.49,1.44,0.18,1.67,0.61,1.44,0.89,1.98,0.06,1.41
1.28,0.69,0.59,1.99,0.6,1.04,1.11,1.17,0.63,0.07,1.33
0.7,1.49,0.96,1.9,1.06,0.28,0.37,1.69,1.34,1.32,0.23
0.33,0.72,0.09,1.06,0.98,0.36,1.2,1.81,0.72,0.2,1.41
1.54,0.98,0.25,0.43,1.03,0.54,1.13,0.41,0.81,0.01,1.05
0.91,1.44,1.07,0.57,0.32,1.25,1.86,0.43,1.31,1.25,1.34
0.66,0.9,1.33,0.87,1.92,0.74,0.53,0.65,0.86,1.28,1.16
0.32,0.62,1.98,0.11,1.87,1,0.65,0.54,1.87,0.46,1.48
1.7,0.99,1,1.9,1.32,1.62,1.2,1.04,1.27,0.31,0.16
0.22,1.08,1.42,0.15,1.5,0.16,0.4,1.15,0.95,0.12,1.55
0.72,1.57,0.62,1.08,0.21,0.25,0.34,1.73,1.99,1.56,1.84
0.41,0.72,0.71,1.45,0.74,0.36,0.34,0.42,0.34,1.38,1.21
1.95,1.9,1.24,1.61,0.93,1.79,0.46,0.01,0.26,0.47,1.23
1.15,0.03,0.69,0.12,1.66,0.32,0.35,1.05,0.61,0.35,0.58
1.11,0.43,0.83,0.07,1.06,1.89,1.9,1.5,0.89,1.8,0.9
0.69,0.27,0.73,1.33,1.3,1.89,1.34,1.5,1.3,0.34,0.02
1.51,0.52,0.05,1.6,1.55,1.99,0.54,0.83,1.53,1.31,0.89
0.38,0.72,0.54,0.49,0.66,0.12,1.58,0.95,0.62,0.12,1.54
1.37,0.27,1.06,1.87,1.82,1.74,1.51,0.54,1.92,1.2,0.9
0.27,1.89,0.92,0.85,1.34,0.11,0.47,0.24,0.75,1.8,0.73
0.03,0.4,1.35,1.57,0.58,0.61,1.17,0.64,0.66,1.44,1.98
1.7,1.45,0.59,0.03,0.32,0.96,0.9,1.07,0.99,1.36,0.08
0.73,0.43,1.95,1.36,0.26,0,0.55,1.03,1.59,1.92,1.28
1.76,0.54,1.9,1.63,0.17,1.99,0.64,0.16,1.86,0.36,1.85
0.95,0.74,0.17,0.02,1.09,1.79,1.28,1.74,0.65,0.76,0.8
1.38,1.05,0.49,1.49,0.23,0.66,0.92,1.12,0.71,1.33,0.26
1.35,1.89,0.28,0.93,0.8,1.72,0.46,0.53,1.98,0.51,0.87
1.87,0.03,1.34,0.54,1.66,1.2,0.89,1.94,0.84,0.83,1.65
1.18,0.8,1.61,1.22,0.08,0.42,0.82,0.25,0.45,0.53,1.63
1.77,0.87,1.04,0.38,1.36,1.98,0.82,0.12,0.86,0.82,0.91
0.75,0.62,0.35,1.37,1.22,0.08,0.93,0.93,0.09,1.46,0.76
1.43,1.07,0.25,0.15,1.11,1.07,1.52,1.24,0.33,1.64,1.03
1.03,0.88,0.82,1.72,1.42,1.79,1.48,1.76,1.13,1.55,0.52
0.63,1.24,0.21,0.64,1.64,1.7,1.28,0.34,1.72,1.76,0.72
1.18,1.34,1.46,0.25,1.94,0.67,1.77,1.78,0.24,0.87,1.24
1.17,0.16,1.36,0.8,1.18,1.12,0.58,0.91,0.86,0.47,0.91
0.17,0.21,0.71,1.2,0.88,1.11,1.11,0.89,1.52,1.05,0.33
0.02,1.22,0.35,1.33,1.45,0.04,0.73,1.58,0.26,1.55,1.42
0.87,0.77,1.14,1.93,1.94,1.41,1.14,1.89,1.69,0.25,0.74
0.51,0.96,1.33,1.65,0.25,1.32,0.94,0.24,1.99,0.03,0.88
0.88,1.67,1.69,0.34,1.79,1.19,0.03,1.68,1.61,0.78,0.71
1.31,1.73,1.54,0.56,0.65,1.03,1.23,1.92,1.4,0.63,1.1
1.22,1.19,1.18,1.44,1.67,0.2,0.55,0.88,0.39,0.7,1.64
0.47,1.68,1.2,0.93,1.34,1.51,0.52,0.26,1.81,0.02,1.55
1.25,1.84,1.4,1.69,0.26,0.51,1.89,0.43,0.45,0.85,1.49
1.89,1.97,1.11,0.01,1.02,0.93,1.41,0.88,1.82,1.26,1.94
0.53,1.18,0.91,1.92,1.4,0.53,1.38,1.86,0.83,1.96,1.5
1.84,1.14,1.83,0.05,1.13,0.29,1.56,0.65,1.33,1.01,1.33
0.28,1.5,0.52,0.88,0.12,1.04,0.89,1.7,0.97,0.39,1.71
1.09,0.02,0.4,0.49,1.75,0.89,0.11,1.13,0.05,1.03,1.59
0.05,1.42,1.01,0.74,1.46,1.84,1.69,0.69,1.75,1.42,1.96
0.45,0.76,0.39,1.43,0.95,1.56,0.13,0.35,1.88,1.73,0.63
0.03,0.24,0.62,1.77,1.8,1.37,1.39,0.91,0.11,1.81,1.62
1.86,0,1.8,0.66,1.59,0.34,0.5,1.99,1.32,0.97,0.96
1.23,0.67,0.13,1.17,0.37,0.49,0.5,0.81,1.8,0.65,0.04
1.84,0.87,1.96,0.58,0.9,1.39,1.17,1.91,0.04,1.85,1.84
1.49,1.07,1.89,0.68,1.87,0.71,0.84,1.01,0.8,1.22,1.23
1.14,0.7,1.25,1.91,1.28,1.69,0.38,0.74,1.19,1.2,1.16
1.62,0.95,0.36,0.94,0.68,1.21,1.89,0.15,1.31,1.38,0.24
1.57,1.96,1.48,1.79,1.06,0.41,1.11,0.95,0.74,0.7,0.69
1.02,0.68,0.28,0,0.09,1.21,1.1,0.71,1.92,1.21,0.06
0,1.9,0.83,0.65,0.62,0.72,0.32,0.11,0.78,0.85,1.38
0.03,1.57,0.6,1.51,0.3,1.7,1.71,1.22,0.37,1.22,0.68
0.62,0.32,1.45,1.98,1.86,1.15,1.58,0.42,0.46,1.38,0.7
1.7,0.12,0.21,0.39,1.21,0.47,0.35,1.79,0.09,0.13,0.29
0.22,1.42,1.16,1.97,1.18,0.51,1.69,0.2,0.78,0.42,1.05
0.35,1.02,1.35,1.98,0.06,0.09,1.71,1.76,0.19,1.78,1.59
1.72,0.97,1.47,0.25,0.86,0.2,0.75,0.18,0.3,0.67,0.82
1.36,1.86,1.3,0.78,0.76,0.5,0.59,1.51,0.08,0.65,0.38
0.91,1.59,1.28,1.64,1.97,0.82,1.42,0.99,1.47,0.29,1.72
1.31,1.98,1.44,1.61,1.9,0.68,1.88,1.4,0.08,0.15,1.5
1.41,0.59,1.47,1.73,0.67,1.14,1.09,0.51,1.5,0.8,1.26
0.7,0.72,0.3,0.22,1.62,0.83,1.12,0.89,0.15,0.23,1.28
1.6,1.87,0.33,0.36,1.28,1.33,0.04,0.19,0.63,0.98,1.98
1.1,0.98,1.85,1.68,1.45,0.54,1.66,0.25,2,0.23,0.61
1.87,1.03,1.73,0.08,0.48,1.37,0.18,0.33,0.27,1.38,1.6
0.76,0.27,1,1.51,1.72,0.92,1.47,1.85,1.19,0.46,1.59
0.73,1.5,1.15,1.09,0.54,0.95,0.91,1.4,0.94,1.92,1.29
1.82,0.11,1.41,0.77,0.41,0.97,0.73,1.02,0.34,0.83,1.67
1.66,1.08,1.47,1.04,0.81,0.87,1.67,0.4,1.11,0.5,1.23
1.78,1.87,1.84,0.76,0.94,1.06,0.47,1.31,0.51,0.68,0.3
1.61,1.16,1.39,1.22,1.02,0.79,0.82,1.46,1.19,1.93,0.47
0.21,1.06,1.56,1.13,1.31,1.02,0.1,0.22,1.53,1.82,0.96
0.93,0.22,0.4,1.63,0.77,0.1,1.74,0.15,1.79,0.98,1.73
0.77,0.27,0.72,0.91,0.42,1.71,1.29,0.85,0.96,0.43,0.03
0.49,1.59,0,0.15,1.25,1.1,0.79,0.07,0.33,1.47,1.33
0.52,1.18,0.51,1.44,0.13,1.41,0.12,0.34,1.91,0.52,0.54
1.32,1.43,1.25,0.18,1.18,0.94,1.93,1.99,0.87,1.07,1.46
0.75,1.81,1.46,1,0.34,1.77,1.21,0.07,1.66,1,1.9
0.43,0.14,0.88,0.9,0.82,1.27,1.69,0.5,1.74,1.94,1.8
1.77,0.6,1.4,1.17,0.87,1.18,1.48,0.16,1.07,0.42,1
1.23,1.61,0.14,1.22,0.67,0.86,1.41,0.52,1.39,0.08,0.06
0.55,1.08,1.81,0.25,0.51,0.88,1.37,0.66,0.14,1.67,1.64
1.44,1.82,0.86,1.41,1.39,1.82,1.14,1.95,1.03,0.75,1.62
0.73,1.76,1.62,1.63,0.91,1.49,0.83,1.62,0.75,1.33,0.96
0.45,0.69,1.56,0.52,1.93,0.64,0.9,0.16,0.79,1.89,1.64
0.66,0.84,0.53,1.37,1.61,1.3,0.12,1.07,1.05,1.63,0.99
1.73,0.25,0.52,1.82,0.62,1.65,1.67,1.9,1.23,1.05,1.81
0.1,1.95,1.53,1.29,0.14,0.09,0.07,1.16,0.87,0.41,0.87
1.38,1.24,1.74,0.72,1.63,1.7,1.7,0.67,0.56,1.89,0.12
0.77,1.97,0.35,0.44,0.01,0.59,0.74,0.6,1.19,1.32,0.98
1.5,0.37,1.21,0.6,1.45,1.31,0.99,1.68,1.07,0.32,1.57
1.05,1.79,1.91,0.75,0.99,0.48,1.92,1.92,1.31,0.94,0.2
0.25,0.56,0.15,0.29,1.56,0.95,0.27,0.86,0.51,0.02,0
1.52,0.17,0.89,1.6,0.81,1.23,0.06,1.29,0.05,0.41,0
1.18,1.56,0.25,1.67,1.63,0.25,0.94,0.01,0.28,1.98,0.14
1.47,0.22,1.04,0.73,0.82,0.99,1.7,1.78,1.32,0.22,1.91
0.69,0.99,1.25,0.66,1.54,0.29,0.04,1.28,0.57,1.44,0.23
0.12,0.51,0.86,0.5,0.85,1.29,0.91,1.76,1.06,0.54,1.75
1.68,1.61,1.22,0.59,1.17,1.5,0.19,0.2,0.47,1.77,0.44
0.01,1.05,1.41,0.96,0.87,1.46,0.6,0.8,1.98,0.94,0.68
1.02,0.83,1.65,1.27,1.85,0.59,1.65,0.55,0.78,1.4,0.34
0.76,1.45,0.21,0.06,0.41,1.83,1.87,1.47,1.38,1.68,1.81
0.84,0.05,0.43,1.53,1.37,0.04,0.88,0.42,1.22,0.89,1.47
0.03,1.45,1.77,1.4,1.12,1.75,0.24,1.28,1.99,1.53,0.06
0.3,0.93,1,0.41,1.39,1.82,0.66,1.28,0.52,0.65,0.66
1.06,1.43,0.97,1.08,0.69,0.42,0.3,1.85,0.77,1.22,0.17
1.68,1.21,0.04,0.94,1.07,1.34,1.47,1.89,0.82,0.28,1.39
0.23,0.56,1.52,0.57,0.11,0.13,1.87,0.69,1.9,0.33,1.05
0.88,0.95,0.23,1.76,1.34,0.83,0.07,1.02,0.49,0.85,0.51
1.07,0.42,1.72,0.67,0.74,1.34,1.04,0.79,1.04,1.52,0.55
0.1,0.07,0.63,0.25,0.41,0.99,0.14,1.94,0.42,0.99,1.06
1.02,1.7,0.37,0.28,1.49,1.13,0.5,0.82,0.03,0.12,1.37
1.75,1.31,1.25,0.86,1.28,1.46,1.42,0.11,0.32,0.42,0.6
1.44,1.27,1.08,1.32,0.1,1.59,0.95,0.92,0.68,0.14,1.39
0.29,1.35,1.68,0.36,1.31,1.04,0.88,0.58,1.24,0.02,1.34
0.38,0.28,0.33,1.59,0.54,1.24,1.54,1.2,1.49,1.48,1.16
0.82,1.25,0.91,1.72,1.21,0.84,1.59,0.22,1.04,1.85,1.76
0.62,0.87,1.95,1.26,0.37,0.01,1.28,1.63,0.88,1.23,1.94
0.25,1.64,0.67,1.6,1.87,0.41,0.44,1.21,1.2,0.64,0.66
0.02,0.71,1.7,0.66,1.18,0.98,1.54,0.11,1.29,1.08,1.3
1.54,1.5,1.88,1.39,1.2,0.83,0.19,0.67,0.09,0.23,1.74
1.9,0.12,1.02,1.35,1.05,1.03,0.13,0.5,0.23,1.48,1.04
0.11,1.44,1.31,0.59,0.18,1.26,1.74,1.47,0.23,0.54,1.61
1.98,1.14,1.81,0.07,1.44,1.21,0.52,1.32,1.09,1.79,0.24
0.84,0.12,1.59,1.14,0.44,1.07,1.58,0.63,0.75,1.37,1.55
1.89,0.82,1.09,1.85,2,0.73,0.51,0.47,0.7,1.62,0.73
0.29,0.2,0.72,0.51,0.69,0.28,1.05,0.19,0.96,1.76,1.15
1.48,1.46,1.77,0.73,0.65,1.72,1.77,1.62,0.85,0.3,1.23
0.83,0.84,1.52,1.7,0.92,0.71,0.76,0.87,1.8,0.94,1.29
1.23,1.54,0.86,0.45,1.34,1.45,0.74,1.36,0.89,0.21,1.51
1.93,1.12,1.65,0.92,0.44,0.12,1.89,0.74,0.89,0.88,0.26
1.89,1.82,1.48,1.61,1.97,1.21,0.54,0.92,1.27,1.24,0.2
0.73,0.67,1.85,1.8,0.22,0.8,1.04,1.56,0.62,0.02,0.4
0.96,0.32,0.75,1.8,0.21,1.78,0.1,1.08,0.73,1.02,0.58
1.59,1.22,0.2,1.71,1.29,0.15,1.13,1.2,1.37,0.08,1.41
1.31,0.92,0.65,1.08,0.42,0.87,1.4,1.89,1.74,1.82,1.98
1.17,1.23,0.99,1.87,1.34,1.98,1.57,1.13,0.19,1.42,0.4
0.98,0.29,0.59,1.29,1.77,0.17,1.48,1.17,0.94,1.04,1
1.09,0.72,1.01,0.73,1.35,1.42,0.97,1.13,1.62,1.31,1.59
1.32,1.98,1.48,0.43,0.09,0.53,0.34,0.14,1.34,1.36,0.47
1.76,0.78,0.02,0.58,0.9,1.95,0.54,0.7,0.6,0.52,0.31
1.56,0.68,0.34,1.88,1.59,0.89,1.41,0.14,0.47,0.04,1.38
0.53,1.19,0.43,0.42,1.95,1.68,1.92,0.31,1.4,0.78,1.03
1.58,0.85,0.61,1.88,0.88,0.19,1.07,0.36,0.71,1.32,0.75
1.68,0.08,0.49,0.43,1.73,0.75,0.56,0.24,1.35,1.19,0.06
1.3,0.82,0.49,1.41,1.23,1.08,0.58,0.75,0.7,0.34,1.35
0.36,0.32,1.52,0.99,1.24,1.05,1.01,0.31,1.48,1.86,1.05
0.12,1.68,0.1,1.07,0.35,0.98,1.34,0.76,1.53,1.05,1.47
0.05,1.44,1,1.78,0.78,1.05,0.59,0.07,1.35,0.84,1.03
1.69,0.12,0.06,0.97,0.91,0.27,1,1.02,1.79,1.57,1.85
0.95,0.39,1.54,1.29,1.48,1.62,1.7,1.42,1.66,0.47,0.3
1.93,1.55,0.06,0.35,0.33,1.68,1.89,0.41,1.45,0.38,0.79
1.28,1.67,0.21,1.73,1.93,0.98,0.81,1.59,1.79,0.19,1.54
1.19,0.75,1.04,1.74,0.51,1.74,1.39,1.13,1.53,1.99,1.35
0.74,1.25,0.86,0.68,1.56,0.83,1.47,0.09,0.05,0.74,0.59
0.74,0.13,1.73,1.59,0.51,0.59,0.05,1.15,1.15,0.83,0.75
0.67,1.88,1.74,1.12,1.77,1.99,0.16,1.15,0.01,0.79,1.03
0.83,1.6,0.16,1.38,1.04,1.09,0.44,1.52,0.06,1.86,0.21
0.65,0.56,0.82,1.35,1.04,0.31,1.08,1.18,1.73,1.14,1.74
0.07,1.92,1.41,0.16,0.19,1.17,0.11,0.97,0.66,0.16,1.14
0.28,1.56,1.62,1.43,0.76,0.37,1.72,1.14,0.67,1.85,0.13
1.96,0.99,1.67,1.06,0.94,1.72,0.83,1.3,1.48,0.67,0.91
0.82,1.48,1.1,1.73,1.71,0.35,0.18,1.7,1.4,0.67,1.04
1.22,0.92,0.46,0.68,0.96,1.24,0.59,0.57,0.91,0.87,1.23
1.2,0.84,0.43,0.63,0.79,1.99,0.46,1.44,0.73,0.42,1.59
0.64,1.55,1.89,0.39,1.62,1.13,0.97,0.98,0.71,0.52,0.88
0.39,1.51,0.6,1.57,1.2,1.31,1.91,1.05,1.71,0.8,1.97
0.98,0.13,1.58,1.94,0.69,1.21,0.57,0.09,0.39,1.49,1.28
1.38,1.84,1.4,0.83,1.99,0.33,1.18,1.62,1.12,1.23,0.99
1.34,0.87,0.48,0.71,0.64,0.43,1.74,0.97,0.7,0.35,0.85
0.28,1.48,1.98,0.08,1.65,0.65,0.73,0.78,1.34,1.09,0.33
1.27,1.54,1.13,0.86,0.91,1.82,1.21,0.03,0.75,1.88,1.97
1.74,0.78,0.2,0.05,1.94,0.67,1.88,0.63,1.08,0.03,1.51
1.93,1.18,0.55,0.87,0.84,1.88,1.03,1.01,0.53,0.14,1.82
1.82,1.41,1.35,0.99,0.37,1.09,0.2,0.18,0.45,0.71,0.97
0.92,0.37,0,0.58,0.35,0.08,1.01,0.57,0.92,0.49,0.55
0.26,1.17,0.49,1.51,0.47,1.02,1.43,0.49,0.01,0.93,1.31
1.94,0.73,1.63,1.72,1.08,0.15,1.09,0.26,1.82,1.02,1.62
0.82,1.07,1.32,1.3,0.92,1.23,0.5,0.46,0.65,0.11,1.55
0.7,0.17,1.51,1.95,0.72,1.43,1.94,1.17,0.07,1.84,1.58
1.43,0.44,1.18,0.65,1.03,1.29,0.1,1.1,0.19,0.78,0.43
1.46,0.01,0.41,0.38,1.74,1.04,1.63,0.89,1.18,1.76,1.38
0.53,1.61,1.71,0.87,0.74,0.97,1.74,1.7,1.6,0.22,1.41
1.77,0.93,0.71,1.49,0.42,1.51,0.56,0.74,0.16,1.08,1.38
1.05,1.16,1.64,1.18,0.65,1.28,0.87,0.44,0.41,1.93,0.67
0.68,0.52,1.45,1.79,0.97,0.37,1.23,0.22,1.16,0.83,1.77
1.38,0.87,0.13,0.86,0.45,1,0.75,1.84,0.73,0.95,0.66
1.98,0.64,1.78,1.39,0.82,0.06,1.42,0.3,0.16,1.19,0.49
1.09,1.17,1.24,1.93,0.89,1.6,1.38,0.25,1.06,0.88,1.28
0.05,0.91,1.65,1.34,1.87,0.02,1.41,0.32,1.12,1.6,0.06
0.43,1.71,0.56,0.29,1.04,0.92,0.86,1.16,0.33,0.44,1.61
0.06,1.57,1.96,0.71,0.13,0.64,1.42,1.39,1.02,1.81,0.34
0.32,1.64,0.51,0.08,0.66,0.51,1.82,1.06,1.06,0.51,1.19
1.99,1.12,0.42,1.18,1.18,1.23,2,1.26,1.91,0.89,0.43
1.32,1.16,1.3,1.85,0.11,0.07,0.49,0.72,0.92,1.23,1.38
0.25,0.37,1.01,0.31,1.81,0.93,1.46,1.16,0.8,0.38,1.45
1.13,1.95,0.65,0.77,1.69,0.04,1.68,1.17,0.13,1.56,0.04
1.11,1.78,1.35,0.09,1.78,1.41,1.04,0.53,1.77,0.2,1.72
1.63,0.71,1.19,1.49,0.33,1.88,1.06,0.01,0.63,0.07,0.44
0.23,0.66,0.56,1.84,1.74,1.86,0.97,1.89,0.97,1.55,1.7
2,1.72,0.01,1.55,0.87,1.56,0.84,1.35,1.54,0.19,0.37
1.92,0.59,1.91,0.96,1.6,1.35,0.8,1.38,0.7,0.11,0.39
1.42,0.35,1.02,0.57,1.19,1.82,0.88,0.56,1.65,1.66,1.87
1.88,1.27,0.33,0.82,0.24,0.92,0.17,1.74,0.07,0.98,0.73
0.96,0.22,1.94,0.42,0.98,0.59,0.55,0.95,0.13,1.62,1.88
1.79,1.08,1.73,1.75,1.7,1.94,0,0.61,1.21,0.81,1.31
1.37,1.13,0.73,0.76,1.07,0.31,0.52,0.29,1.17,1.5,1.28
0.99,1.06,0.79,0.06,1.08,1.12,0.92,1.3,0.61,1.9,1.81
0.57,0.55,0.77,0.08,1,0.03,1.54,1.04,0.87,1.73,0.93
1.95,0.72,1.82,0.08,1.6,1.69,0.69,0.49,0.19,0.64,0.81
0.25,0.93,0.75,0.61,1.8,1.32,1.27,0.42,0.14,1.8,1.29
0.31,1.25,0.61,0.17,1,1.84,0.96,1.14,1.3,0.04,1.5
1.51,1.77,0.67,0.77,1.47,1.78,1.79,0.63,0.52,0.18,0.69
0.54,0.92,0.07,0.65,1.08,1.09,0.79,0.68,0.49,0.01,0.04
0.06,1.83,1.83,0.45,0.45,1.54,0.99,1.74,1.05,1.55,1.14
0.84,1.2,0.1,1.8,1.51,0.06,1.73,0.68,1.13,0.58,0.58
1.36,0.52,1.9,1.36,0.44,0.54,1.04,0.28,1.17,0.82,1.32
1.09,0.67,0.44,0.32,0.93,0.34,0.75,1.93,1.45,1.74,0.57
0.64,1.07,1.37,1.77,1.34,2,1.92,1.67,0.99,1.09,0.85
0.66,0.04,0.54,1.33,1.17,0.84,1.31,0.62,1.79,0.55,0.07
1.17,1,1.68,1.64,1.82,0.7,0.13,1.67,1.08,1.49,0.6
0.26,0.33,0.41,1.29,1.79,0.76,0.9,0.23,1.67,0.68,1.46
1.88,1.29,0.73,1.31,1.44,1.87,1.65,0.92,1.51,1.22,0.23
0.5,1.16,0.81,1.01,0.23,1.27,1.45,0.61,1.2,1.25,0.37
1.35,0.94,0.61,0.02,0.28,1.1,0.13,0.11,1.88,1.36,0.39
1.76,0.11,1.68,0.91,0.84,1.98,1.54,1.25,1.98,1.72,0.79
1.17,0.93,0.45,1.91,0.51,0.57,0.69,0.61,1.98,1.91,1.75
1.96,0.28,1.39,0.63,0.28,1.45,0.79,1.1,0.69,1.72,0.94
1.28,0.27,1.75,1.96,1.22,1.39,1.11,1,0.99,1.05,0.96
0.32,1.18,0.64,0.11,1.64,0,0.22,1.81,1.19,0.62,1.74
0.57,0.5,1.11,0.34,0.64,1.6,0.59,1.9,1.81,1.59,1.48
0.72,1.28,1.47,0.55,0.53,1.31,1.4,0.34,1.97,0.12,1.24
2,0.61,1.24,1.66,1.02,1.2,1.14,0.12,0.59,1.93,1.83
1.1,1.85,0.51,0.35,1.13,0.25,1.3,0.74,1.44,0.15,1.19
0.32,1.39,1.06,0.29,1.95,1.74,1.23,0.79,1.73,1.32,1.99
0.99,1.95,0.88,1.86,0.01,1.99,1.51,1.51,0.96,1.54,1.39
0.39,1.34,0.36,0.39,1.81,1.39,1.17,1.86,0.23,1.85,0.84
0.71,1.3,0.59,0.63,0.09,0.71,1.28,0.93,0.37,0.73,1.38
1.16,0.82,1.28,1.87,0.6,0.41,0.3,0.26,0.41,1.2,1.26
0.08,1.01,0.95,0.25,0.77,1.68,1.3,1.85,0.86,0.39,1.67
0.44,1.51,1.77,1.95,1.08,0.9,1.45,1.15,1.24,1.93,0.2
1.51,1.67,0.49,0.92,1.86,1.89,0.97,0.75,0.05,0.66,0.91
1.63,1.46,0.62,1.16,0.11,0.39,0.69,0.18,0.72,1.87,1.01
1.41,0.27,1.42,0.08,1.32,1.68,1.78,1.57,1.85,1.61,1.14
1.49,1.67,1.52,1.06,1.07,0.39,1.16,1.87,1.28,1.12,0.34
1.11,0.21,0.02,1.16,0.15,0.25,1.41,0.29,1.74,1.91,1.4
0.03,0.58,0.59,0.09,1.23,1.16,1.19,1.19,1.25,0.78,0.71
1.72,1.55,0.33,0.22,0.01,0.31,1.76,0.27,0.03,1.1,0.84
1.93,0.13,1.29,0.05,1.67,1.59,1.82,1.57,1.77,1.69,0.75
0.82,0.28,1.93,1.48,0.57,1.78,0.42,1.14,1.24,1.13,1.62
0.18,0.54,1.07,1.69,0.69,0.13,0.36,1.98,1.33,0.42,1.44
0.12,1.33,0.61,1.05,1.3,1.05,1.81,0.52,0.06,1.59,1.52
1.14,1.72,0.6,1.38,0.75,1.14,0.17,0.46,0.73,1.3,1.26
0.51,1.48,0.23,1.56,1.28,0.76,0.98,0.19,1.76,0.69,1.18
1.37,0.8,1.33,0.85,1.71,0.35,1.41,1.69,0.52,0.65,0.14
1.33,0.09,0.76,0.37,0.05,0.84,0.94,1.23,0.62,1.14,1.63
1.11,0.98,0.76,0.33,0.28,1.87,1.08,1.47,0.29,0.28,0.41
1.57,1.44,0.99,1.68,1.86,1.25,0.23,1.58,1.61,0.52,0.26
1.8,0.78,1.36,0.34,0.62,0.28,1.22,0.9,0.44,0.5,2
0.94,1.98,1.94,0.27,0.39,1.67,0.8,0.4,0.11,1.39,1.76
0.31,1.93,1.62,1.81,0.21,1.03,1.32,1.14,1.05,0.95,0.68
1.87,0.32,0.09,0.76,1.18,1.28,0.24,0.7,0.26,0.56,1.92
1.56,1.5,0.23,1.21,0.34,1.36,1.27,1.62,1.48,0.14,1.9
0.27,1.37,0.69,1.13,0.08,0.85,0.29,1.34,0.35,1.97,0.41
0.55,1.29,1.75,0.3,1.8,0.06,0.33,1.06,0.89,1.57,0.23
0.74,0.71,1,0.41,0.46,0.68,1.24,0.74,1.32,1.48,1.68
0.34,1.82,1.19,0.36,1.17,0.32,1.84,0.39,1.47,0.6,1.73
0.54,1.43,0.1,0.91,1.35,0.14,1.27,0.07,1.68,1.36,1.36
0.41,0.95,1.86,0.37,1.35,1.43,1.13,0.66,0.86,1.41,1.9
0.48,0.66,1.57,1.8,1.39,0.23,1.51,0.59,0.26,0.1,0.47
0.18,0.99,0.01,1.12,0.96,1.09,0.09,1.99,0.26,1.81,1.46
1.75,1.65,0.72,0.85,0.67,0.72,0.09,0.92,1.18,0.11,1.37
0.92,0.08,0.47,1.84,1.14,0.32,1.72,0.87,1.84,0.79,0.46
1.84,1.79,1.82,1.68,1.33,1.33,0.05,1.1,1.12,1.15,1.27
0.84,0.93,1.01,0.41,0.88,0.22,1.95,1.53,1.64,0.67,0.7
1.23,1.79,1.54,1.28,1.75,0.8,0.3,1.02,0.67,1.41,0.64
1.79,0.76,1.68,1.02,0.17,1.25,0.25,1.83,0.18,0.16,1.84
1.08,1.42,0.4,0.05,0.53,0.61,0.02,1.48,1.62,1.71,1.46
0.19,1.62,0.33,1.59,0.34,0.84,0.29,1.58,1.44,0.31,1.48
1.74,0.78,0.15,1.21,1.87,0.87,1.44,1.59,0.89,1.37,1.46
0.76,0.74,0.41,0.25,1.62,0.19,0.91,1.21,0.72,1.84,0.88
0.54,0.77,1.98,0.99,1.1,1.63,0.53,0.41,0.03,0.87,1.86
1.94,0.25,1.24,0.98,1.96,0.51,1.32,1.44,1.24,0.13,0.23
0.94,1.72,1.54,1.35,1.6,0.61,0.95,1.73,0.06,0.82,0.03
0.75,1.72,1.33,1.32,1.65,1.41,0.58,0.81,1.31,0.89,1.94
0.86,0.35,0.31,1.15,1.92,0.88,1.25,1.75,0.36,1.31,1.4
1.79,1.74,0.17,0.85,0.78,1.48,1.11,1.93,1.58,1.69,1.68
0.14,0.86,0.99,1.59,1.31,1.88,0.43,1.26,1.45,0.33,0.02
1.92,0.53,1.47,1.45,1.6,1.6,0.13,0.78,1.06,1.69,0.82
0.54,1.4,1.15,1.17,0.52,1.59,0.47,1.3,0.09,0,0.89
1.44,0.3,0.98,0.69,0.52,0.08,0.85,1.59,0.8,1.14,0.49
0.79,0.6,1.49,1.74,0.46,1.62,0.62,1.56,0.4,1.64,1.12
1,1.29,0.21,0.97,1.5,1.54,0.72,0.74,0.79,0.25,1.63
1.49,1.79,1.01,1.81,0.32,1.32,0.15,0.99,1.58,0.79,0.94
0.09,1.28,1.47,1.74,1.73,1.47,1.84,0.13,0.05,0.55,0.65
1.1,0.52,0.04,1.92,0.69,1.11,0.15,0.06,1.96,0.41,1.04
1.65,0.78,1.56,0.4,0.82,1.36,1.65,0.26,0.43,1.03,0.16
0.33,1.08,1.69,0.28,1.56,0.5,1,0.81,0.94,1.92,1.39
0.33,0.89,1,0.62,0.68,1.69,1.96,0.18,1.03,1.55,0.67
1.01,0.05,1.51,1.54,0.9,1.92,0.14,0.12,1.51,0.6,0.12
0.31,1.32,0.74,0.09,1.64,0.51,0.1,1.53,0.02,0.53,1.37
0.9,0.83,0.02,0.17,0.29,1.12,1.62,0.66,0.56,1.75,1.03
0.19,0.52,0.01,1.55,0.97,0.71,0.73,1.87,0.53,1.62,1.63
0.27,0.91,0.28,0.96,1.33,0.93,1.05,0.18,1.83,1.5,0.28
1.24,1.48,0.24,0.28,0.48,0.03,1.86,0.72,0.81,1.1,0.25
1.56,0.9,1.73,1.87,0.21,1.72,1.29,1.51,1.4,1.22,1.14
1,1.81,1.33,0.42,0.02,0.31,0.56,0.13,1.27,0.77,1.64
0.73,0.62,1.88,0.4,0.56,0.52,1.34,0.3,0,0.75,1.94
1.89,0.13,1.63,1.05,1.99,1.17,0.81,1.04,1.19,0.37,0.52
0.04,0.37,0.59,1.55,1.7,0.72,0.07,0.2,0.08,1.84,1.68
1.28,0.91,0.59,0.69,1.43,1.4,0.04,0.3,0.35,1.54,1.66
0.08,1.66,0.33,1.15,1.29,0.27,1.65,1.85,0.35,1.42,0.71
1.18,0.31,0.29,1.07,0.31,1.89,0.84,0.65,0.24,1.12,1.5
0.91,1.97,1.58,0.33,0.56,0.92,1.15,1.65,0.73,0.19,1.02
1.65,1.78,0.07,1.84,0.43,0.99,0.64,1.05,0.17,1.09,2
0.02,1.55,0.59,1.54,1.31,1.41,1.97,1.3,0.46,1.75,1.94
1.46,0.91,0.71,1.48,0.35,0.1,1.48,0.19,1.66,0.73,0.63
0.95,0.32,1.25,0.63,0.17,1.99,1.84,0.95,1.56,0.15,1.96
0.37,1.64,1.63,0.19,0.23,0.66,0.52,0.55,0.33,0.54,0.14
0.3,0.53,0.63,0.64,0.02,0.8,1.99,1.01,0.62,0.85,1.21
0.62,0.01,1.2,1.7,0.77,0.77,1.77,0.3,1.55,1.88,0.85
0.24,0.18,0.26,0.69,0.7,0.5,0.63,0.52,1.79,1.46,0.3
1.68,1.08,1.79,1.88,1.46,0.8,1.45,0.17,1.44,1,0.55
0.76,1.65,1.07,1.25,0.03,1.3,0.06,0.95,0.07,0.01,0.46
1.44,1.52,0.21,1.69,1.83,1.29,1.21,1.83,0.43,0.45,1.99
1.14,1.63,1.76,0.76,0.93,1.37,0.26,1.53,0.89,1.14,0.82
1.39,0.26,0.92,0.52,1.59,1.31,1.4,1.03,1.68,1,0.7
0.57,0.95,1.92,1.49,0.18,0.48,1.52,0.8,1.78,0.7,0.47
0.61,0.86,1.3,0.15,1.68,1.99,1.14,1.73,0.76,0.44,0.96
1.39,1.26,1.06,1.35,0.06,1.22,0.97,1.57,1,1.85,0.68
1.99,1.24,1.49,1.3,0.84,0.29,1.98,1.08,0.09,0.17,0.25
1.25,0.29,1.08,1.81,0.15,1.53,1.51,1.69,0.62,1.65,0.73
0.31,0.05,0.43,1.92,1.66,1.31,1.33,1.52,1.31,1.59,0.4
1.95,0.3,0.18,0.64,1.29,1.09,1.1,1.69,0.41,0.36,1.42
1.18,1.46,0.49,1.37,1.16,1.99,0.8,0.78,1.83,1.39,0.76
1.57,1.46,0.91,1.24,1.56,1.05,0.1,1.67,1.04,0.15,0.47
1.95,1.64,0.35,1.34,1.09,1.6,0.87,0.67,1.06,1.7,0.43
1.22,1.88,1.8,0.72,1.64,1.47,1.67,0.47,0.84,1.87,0.34
0.97,1.02,0.51,0.37,1.45,1.24,1.25,0.4,0.38,0.81,0.33
0.7,1.7,0.57,1.11,0.21,1.58,0.07,0.28,0.05,0.38,1.8
0.54,1.33,0.5,1.23,1.23,0.52,1.92,0.03,1.19,0.92,1.8
0.04,1.48,0.76,1.46,1.56,0.61,1.36,0.01,1.91,0.76,0.8
2,1.77,1.8,0.03,0.84,0.65,1.2,1.29,1.62,1.04,0.94
1.29,0.55,1.58,0.9,1.56,0.78,0.6,1.21,0.74,1.33,1.08
1.32,1.97,0.55,0.96,0.69,1.57,0.74,0.09,0.85,1.08,1.11
1,1.54,1.76,0.91,0.5,0.47,1.24,0.96,0.06,0.58,0.93
1.86,0.53,0.2,1.36,0.04,0.26,1.53,0.43,0.48,1.05,0.03
1.27,1.02,1.62,0.87,0.07,1.13,1.56,1.33,0.38,1.43,0.02
1.87,1.56,0.88,1.27,1.62,0.3,0.16,1.75,1.15,0.67,1.16
1.62,0.13,0.92,1.41,1.2,1.36,0.35,0.73,0.39,0.61,1.82
1.52,1.05,1.59,1.47,0.71,1.43,1.69,1.64,0.19,0.43,1.5
0.83,0.47,0.81,0.56,0.74,1.48,0.87,0.66,1.1,0.77,0.79
1.92,0.83,1.98,0.5,1.14,1.06,0.1,0.43,1.35,1.82,1.52
0.39,0.16,1.68,1.65,1.7,0.37,0.92,1.97,1.52,0.49,1.25
1.92,0.06,0.04,0.36,0.42,1.18,0.73,1.17,1.81,1.1,0.01
0.59,1.07,0.77,0.85,0.83,1.34,0.11,0.81,1.34,0.22,0.3
1.71,0.98,0.66,1.77,1.26,0.13,1.21,1.13,1.69,0.13,0.6
1.67,1.14,0.15,0.9,0.67,0.93,1.87,0.27,1.15,0.31,1.77
0.2,0.06,1.44,1.81,0.92,0.93,0.45,1.8,0.2,1.82,1.15
0.58,1.46,0.33,0.87,1.64,0.58,1.66,0.06,1.58,1.41,0.38
1.27,1.75,1.82,0.37,0.98,1.45,1.13,0.27,1.58,0.62,1.56
1.56,0.27,0.06,0.14,1.43,1.31,0.54,1.1,1.49,0.22,1.64
0.54,0.17,0.52,0.89,0.8,1.37,1.31,0.91,0.56,1.64,1.89
0.07,0.35,0.15,1.92,1.35,0.61,1.15,0.51,0.66,0.78,1.49
1.05,1.41,0.07,0.28,0.72,0.63,0.09,1.74,0.5,1.83,1.2
0.11,1.72,1.27,1.79,0.77,0.08,0.58,1.43,1.32,1.37,1.6
0.23,0.25,1.8,0.41,1.99,0.62,1.16,1.81,0.14,1.13,1.11
0.16,0.39,0.9,0.51,0.66,1.38,0.23,1.83,0.7,0.73,1.62
0.78,1.91,0.27,1.52,1.93,1.09,0.97,1.25,1.33,1.9,1.35
0.1,0.28,0.7,1.41,1.84,1.79,0.57,1.21,1.32,0.62,1.87
1,1.39,1,0.15,0.17,1.34,1.91,0.08,1.31,1.15,0.42
0.72,1.25,1.41,1.73,0.5,0.46,0.1,1.98,0.34,1.08,1.46
1.77,0.93,1.86,1.19,1.5,0.76,1.27,0,0.8,0.04,1.72
0.94,0.21,1.05,2,1.04,0.72,0.27,0.53,0.65,0.09,0.44
0.33,0.11,1.22,0.71,1.62,1.56,0.48,1.92,0.35,1.79,0.78
1.6,0.03,1.35,0.93,1.37,0.18,0.14,0.86,1.47,0.42,1.26
1.59,0.88,1.37,1.43,0.46,0.61,1.48,1.66,0.86,1.63,1.9
1.34,1.31,1.52,1.6,0.56,1.36,0.73,0.62,0.74,1.18,1.11
0.48,0.65,0.63,0.81,1.44,1.99,1.41,0.15,1.8,1.61,0.83
1.12,0.96,1.28,0.51,1.95,0.31,1.38,1.5,0.83,1.76,1.62
1.93,0.62,0.73,0.9,1.97,0.85,1.62,0.95,0.66,1.46,1.13
1.23,0.59,0.67,0.6,1.06,0.73,1.04,1.62,1.23,1.9,1.6
0.44,0.28,1.73,0.48,0.4,0.68,1.27,1.62,0.71,0.6,1.13
1.65,0.66,1.15,1.65,1.5,0.43,1.32,1.83,1.11,0.3,0.69
0.1,1.3,1.96,0.17,0.1,0.07,0.69,0.92,1.87,0.82,0.81
0.96,1.18,0.8,0.97,1.6,0.58,0.49,0.46,0.44,0.47,0.52
0.34,1.47,1.77,0.53,1.82,0.98,0.82,1.54,1.21,0.99,0.7
0.78,0.46,1.23,0.05,0.28,0.92,1.95,0.29,1.81,1.77,1.17
0.01,1.57,0.34,0.84,1.95,0.67,1.06,0.83,1.19,0.2,1.41
1.74,0.89,0.9,0.37,0.18,0.37,1.18,0.82,1.39,1.72,0.41
1.22,0.82,1.04,0.59,1.42,1.25,1.56,1.66,1.02,0.63,1.48
1.99,0.81,0.24,0.35,1.82,1.62,0.72,0.89,0.93,1.74,0.08
0.44,1.65,1.14,0.29,0.72,1.27,1.11,1.28,0.63,1.96,0.21
1.56,1.59,1.89,1.56,1.33,1.89,1.62,0.03,1.36,1.34,1.9
1.76,0.42,0.17,1.06,1.78,0.02,0.26,0.76,0.78,1.62,1.9
1.63,1.86,0.98,1.84,0.6,0.66,1.91,1.59,0.77,0.74,1.84
0.43,0.74,1.59,1.79,1.1,0.37,1.19,1.95,1.44,1.5,0.38
1.74,1.34,0.02,0.22,0.2,1.79,0.44,0.16,0.29,0.43,0.66
1.41,1.6,0.39,1.33,0.22,1.77,0.59,0.86,0.33,1.14,0.56
1.85,1.59,0.23,1.55,1.44,1.98,1.78,0.28,0.79,1.98,1.98
0.81,1.38,0.74,0.98,1.83,0.31,0,0.72,1.44,1.36,1.02
0.82,0.69,1.72,0.15,1.84,1.76,1.52,1.73,0.65,0.09,1.53
0.04,0.55,0.31,1.48,0.35,0.72,1.43,1.43,1.11,0.19,0.83
1.33,0.44,0.6,0.1,0.4,1,1.56,1.87,0.65,0.14,1.03
0.99,1.33,0.3,1.05,0.85,0.09,0.93,1,0.66,0.92,0.59
0.22,0.02,0.21,0.06,0.5,0.06,1.91,1.1,0.66,1.71,0.94
0.86,1.32,1.35,1.6,0.91,0.88,0.79,1.42,0.85,0.04,1.54
0.16,0.16,0.96,0.5,1.19,0.44,1.81,1.08,1.38,0.9,1.95
0.67,1.38,0.96,1.87,0.09,1.04,0.84,1.76,0.27,0.42,1
1.68,1.23,0.72,1.82,1.07,1.14,0.67,0.14,0.87,0.56,1.56
1.09,0.13,0.36,1.29,0.63,1.56,1.59,1.36,1.65,1.29,0.11
0.08,1.07,1.91,0.46,0.02,0.46,0.79,0.21,0.82,0.42,1.42
1.51,1.86,0.9,1.65,1.9,1.36,1.33,1.31,1.28,1.34,1.93
1.45,1.18,1.26,0.37,0.7,1.63,0.31,0.35,1.34,0.49,1.36
1.66,0.23,1.17,1.55,0.9,0.24,1.47,1.54,1.81,0.66,0.97
1.18,1.48,0.61,1.53,0.36,0.82,1.25,1.55,1.44,0.42,0.88
1.6,0.04,0.11,1.43,0.77,0.99,1.52,1.6,0.21,1.88,0.9
0.6,1.39,0.57,0.41,1.45,1.9,1.66,0.97,1.73,1.82,0.27
1.87,1.09,0.77,0,1.46,1.97,0.23,1.6,1.81,0.89,0.55
1.47,1.17,0.84,1.93,1.19,0.11,0.5,1.27,1.57,1.14,1.66
1.09,1.36,1.58,0.06,1.45,0.97,0.41,0.31,1.15,0.84,1.69
1.3,0.39,2,1.42,0.06,0.65,1.93,1.5,1.2,1.64,0.68
0.58,0.3,1.65,1.12,1.24,1.08,0.14,1.51,0.57,1.56,0.02
1.94,0.01,0.05,0.35,0.82,0.85,0.3,1.48,1.77,1.01,1.33
1.09,0.61,0.57,1.94,1.41,1.06,1.05,1.09,0.98,0.59,1.52
1.2,1.21,1.26,1.83,1.65,1.85,1.46,1.62,1.84,0.08,0.99
0.36,0.09,0.76,1.61,1.69,1.41,0.65,0.15,0.5,0.34,1.97
1.3,0.09,0.59,0.81,1.66,1.85,1.78,0.07,1.37,0.41,1.87
0.31,0.48,1.21,0.43,0.71,0.95,1.36,0.48,1.89,1.36,0.3
0.58,0.89,1.5,0.48,0.76,0.51,0.93,1.09,1.07,0.55,0.6
1.41,1.79,0.75,0.32,0.04,1.63,0.86,0.15,0.24,1.28,1.7
1.65,0.45,0.8,0.29,1.27,0.94,1.78,1.52,1.06,1.68,1.31
0.32,1.93,1.45,1.62,0.11,0.37,1.62,0.3,0.05,0.33,0.39
1,1.69,1.4,0.34,1.47,1.5,0.5,0.07,1.39,1.74,1.27
0.06,0.13,1.4,0.84,1.48,1.53,0.75,1.32,0.58,0.49,1.16
1.93,1.89,1.61,1.93,1.95,0.06,0.19,0.53,0.49,1.86,1.44
0.29,0.73,0.15,1.45,0.44,1.26,1.64,0.3,0.06,1.59,0.4
0.59,0.96,0.7,0.46,0.39,0.7,1.26,1.84,0.4,1.89,0.16
0.66,1.56,0.82,0.66,0.43,0.11,1.68,1.8,1.36,0.11,0.19
0.98,0.65,0.81,1.19,0.3,0.69,0.36,0.43,1.3,1.79,1.27
1.97,0.03,0.31,0.81,1.13,1.94,0.31,1.12,1.72,1.39,1.13
1.64,1.57,0.76,0.78,1.35,1.14,0.74,0.3,1.79,1.2,1.64
0.2,1.4,0.04,0.01,0.1,1.3,1.59,1.02,1.4,0.63,1.72
1.12,1.06,1.42,1.43,0.52,0.1,0.78,1.55,1.74,1.03,1.44
0.37,0.83,0.69,0.16,0.47,1.61,1.97,0.23,0.27,0.72,0.11
0.68,0.42,1.81,1.52,0.42,0.63,1.7,1.92,1.13,1.01,1.85
1.66,0.47,0.39,0.23,0.14,1.31,1.13,0.73,1.86,0.34,1.21
1.32,0.55,1.23,1.46,0.64,1.52,0.03,0.43,0.69,1.09,1.88
1.9,0.69,0.33,0.41,0.2,0.2,0.64,0.2,0.58,0.64,1.3
1.94,1.97,0.18,1.95,0.88,1.68,0.14,0.75,0.86,1.09,0.56
0.01,0.37,0.1,0.39,0.75,1.01,1.63,0.48,1.5,0.6,1.98
0.74,1.89,1.81,1.99,0.06,1.59,0.76,1.55,0.87,1.88,0.51
1.69,0.65,1.1,0.92,0.98,1.86,0.92,0.87,1.97,0.89,1.08
0.5,0.63,0.76,1.15,0.4,0.78,0.56,1.25,1.98,1.47,0.64
1.49,1.3,0.42,1.48,0.24,1.56,0.66,0.39,0.04,1.42,1.83
1.96,1.48,0.14,0.4,0.13,1.97,0.33,0.52,0.57,1.58,1.57
1.37,0.36,0.17,1.34,0.85,1.79,1.71,0.26,0.62,0.67,1.84
1.5,1.17,0.41,0.19,1.88,1.81,1.58,1.13,0.07,0.98,1.69
1.57,0.78,1.68,1.26,0.3,0.06,1.45,1.78,0.55,1.02,0.59
1.54,1.07,1.54,1.66,1.19,1.54,0.25,1.56,1.3,1.67,0.26
0.16,1.62,0.98,0.53,1.95,0.28,1.44,1.95,1.4,1.92,0.32
1.03,1.66,0.21,1.04,0.55,0.83,1.26,0.51,1.6,1.47,1.29
0.86,1.74,0.87,1.67,0.68,1.41,0.99,1.41,1.32,0.1,1.33
1.37,1.3,1.09,1.79,1.21,1.61,0.73,0.49,1.71,0.23,1.61
0.46,1.1,1.33,1.38,1.25,1.01,1.36,1.94,0.28,1.3,1.05
0.7,1.51,1.36,1.66,0.4,0.12,1.52,0.29,1.74,0.23,0.49
1.6,0.99,1.03,1.59,1.46,1.73,0.28,0.66,0.64,0.75,0.8
1.22,0.98,1.49,0.81,0.52,0.79,0.56,1.7,1.67,0.39,0.92
1.87,0.84,1.74,0,0.85,0.79,0.79,0.77,1.75,1.15,1.48
1.74,1.99,0.51,0.9,1.27,0.36,1.43,0.11,0.94,1.72,0.06
0.07,1.68,1.45,1.01,1.87,1.49,1.95,1.27,1.59,1.84,1.53
0.7,0.07,1.02,0.14,0.48,0.61,1.63,0.09,0.85,1.85,0.49
1.37,0.9,1.11,1.57,0.66,0.48,0.84,0.31,1.01,0.75,0.93
1.19,0.9,0,1.54,1.83,0.21,1.56,1.67,1.63,0.36,1.72
1.6,1.99,1.51,0.92,1.28,0.83,0.59,0.95,0.87,1.35,0.88
1.11,1.66,0.72,1.14,1.59,1.83,1.89,0.76,1.27,1.12,0.7
1.5,0.02,1.35,0.17,0.37,1.3,1.38,0.96,0.14,1.59,0.28
0.22,0.9,1.42,1.83,1.55,0.77,0.27,1.73,1.41,0.46,0.16
0.54,0.29,1.67,1.34,0.23,1.38,0.17,1.14,1.66,0.3,0.35
1.69,0.52,1.8,0.35,1.81,0.69,1.65,0.63,0.3,1.88,0.23
0.24,1.6,1.44,0.92,0.74,0.99,1.71,1.83,0.02,0.98,1
1.87,1.97,1.68,1.54,0.84,0.63,1.28,0.56,1.42,1.59,1.78
1.31,1.35,0.42,1.13,1.14,1.39,0.37,1.74,1,0.94,0.83
1.49,1.8,0.24,0.92,1.3,0.41,1.77,1.83,0.37,1.98,0.59
1.37,0.48,1.67,0.91,1.5,1.1,1.99,0.48,0.16,0.75,0.22
0.83,0.16,1.15,1.81,1.74,0.18,1.96,0.96,1.45,0.13,1.16
0.53,0.69,1.92,1.47,1.51,0.94,1.71,0.48,0.33,1.06,1
1.99,0.55,1.45,0.07,0.67,1.48,0.64,1.88,1.99,0.63,1.94
0.91,1.76,0.94,1.91,0.81,0.84,1.08,0.45,1.1,0.64,1.84
1.3,0.26,0.3,0.84,1.72,1.29,0.99,1.29,0.54,1.53,0.81
1.45,0.94,1.59,1.49,0.25,1.11,1.46,1.26,1.76,1.49,1.05
1.66,1.02,1.16,0.88,1.85,1.58,0.95,1.45,0.9,1.44,1.22
1.83,1.02,1.57,0.83,0.71,0.01,0.54,0.78,1.86,0.07,1.39
0.81,1.02,1.08,0.21,0.83,0.76,1.06,0.59,1.24,0.99,1.49
1.13,1.82,1.72,0.87,0.24,1.32,0.67,1.11,1.45,0.87,1.4
0.75,1.48,0.53,1.34,0.34,0.94,1.35,0.67,0.5,1.83,1.03
1.8,0.66,0.01,0.38,1.34,1.79,0.91,0.61,0.45,1.67,0.2
1.88,1.77,0.74,0.48,1.69,1.64,0.11,1.94,0.18,0.95,1.04
0.62,0.82,0.47,0.24,0.46,0.44,0.2,1.5,0.71,1.44,1.34
1.1,0.64,1.06,1.57,1.43,0.64,1,0.61,1.54,1.41,0.44
1.24,1.52,1.86,1.39,1.94,1.67,1.91,0.62,0.59,1.68,0.89
0.49,0.27,0.26,0.27,0.16,1.29,0.54,0.22,1.14,1.52,0.95
0.86,1.93,1.18,0.61,1.54,0.39,1.25,0.82,0.23,1.06,1.85
0.44,0.29,1.13,1.84,1.62,1.57,0,1.01,0.74,0.11,0.93
1.46,0.2,0.5,1.19,0.23,1.9,0.71,0.17,1.41,1.94,1.06
1.54,0.34,1.05,0.88,1.73,0.24,0.08,0.34,0.68,1.65,1.17
1.25,0.76,0.23,1.65,1.92,1.47,1.48,0.23,0.91,1.42,0.49
1.99,0.07,0.01,1.33,1.75,0.08,0.31,1.55,1.03,0.05,0.49
0.12,0.53,0.93,0.55,1.01,0.68,0.57,0.87,1.38,1.48,1.24
1.93,0.93,0.42,1,1.44,1.35,0.22,1.88,0.52,1.7,0.19
0.77,0.41,0.07,0.94,1.42,0.6,0.22,0.71,1.29,0.16,0.97
1.69,0.16,1.56,1.17,0.56,0.3,0.05,0.68,0.6,0.9,0.24
0.71,1.27,0.05,1.83,1.55,1.92,0.29,1.91,1.12,1.8,0.08
0.09,0.82,1.81,0.35,0.48,0.3,1.49,0.3,0.54,1.73,0.69
0.37,0.6,0.52,0.78,0.94,0.72,1.13,1.61,0.2,0.8,1.08
0.02,2,0.31,1.35,0.04,1.07,0.6,0.3,0.57,0.04,0.65
1.2,1.41,1.61,0.68,1.86,0.84,1.34,1.6,0.43,1.79,0.58
1.89,1.15,0.15,0.28,1.47,0.39,1.89,0.04,0.94,1.13,1.77
1.55,1.02,1.9,1.07,1.53,0.89,1.69,1.15,1,1.36,0.08
1.25,0.34,0.34,0.84,1.03,0.16,1.46,1.04,0.01,0.5,0.13
1.68,0.62,1.07,0.04,1.48,0.85,0.62,1.78,0.66,1.82,1.03
1.35,1.88,1.82,0.64,1.35,1.49,0.01,1.83,0.68,1.45,0.36
0.11,1.18,0.94,1.26,0.39,0.79,1.78,0.63,1.4,0.68,0.37
0.2,0.81,0.09,0.08,0.36,0.99,1.07,0.08,1.03,0.62,1.57
0.98,1.7,1.43,1.92,0.98,0.24,1.78,0.81,0.71,0.91,0.55
1.67,1.33,1.14,1.59,0.35,1.06,0.46,0.24,1.27,0.31,0.38
0.3,1.28,1.38,1.19,0.32,1.46,0.96,0.61,1.09,0.95,1.42
0.12,0.76,1.38,0.83,0.65,1.83,0.45,1.33,1.68,0.21,1.26
0.75,0.86,1.19,1.62,0.23,1.84,1.48,1.31,0.43,1.86,1.18
1.76,0.7,1.66,1.97,1.03,1.68,1.09,1.54,0.77,0.92,0.65
0.01,1.92,0.21,1.46,1.92,0.38,1.98,1.16,0.4,1.18,1.58
0.32,1.44,0.95,1.68,1.93,0.11,0.25,1.08,1.9,0.97,0.98
1.64,0.35,1.74,0.7,1.84,1.8,1.19,1.05,0.82,1.13,1.56
1.09,0.88,1.6,0.27,0.33,0.79,1.89,0.64,0.51,1.2,1.3
1.28,0.62,1.53,1.86,0.87,0.03,0.88,0.51,1.54,1.58,1.11
1.45,0.38,0.77,0.21,1.49,1.34,1.43,1.72,1.15,0.51,1.16
0.87,1.33,1.85,1.77,1.38,0.59,0.96,0.37,0.9,0.33,1.08
0.54,1.55,1.44,1.97,0.1,0.61,1.37,0.17,1.68,0.21,1.69
0.94,1.95,0.99,1.95,1.42,1,1.53,0.56,1.54,1.38,0.33
0,1.47,0.9,1.05,0.62,0.48,1.24,0.21,1.83,0.81,1.5
0.52,0.82,0.71,1.05,0.2,1.07,0.04,1.3,1.27,1.49,1.47
0.38,0.52,1.97,0.07,1.96,0.88,1.19,1.48,0.28,1.63,0.91
1.23,0.32,0.36,0.55,0.95,1.22,1.95,1.89,0.88,0.34,1.37
0.29,0.31,0.42,1.46,1.14,0.97,0.14,1.21,0.98,0.76,1.87
1.83,0.72,0.65,1.8,0.39,0.45,1.08,0.58,1.52,1.02,1.78
1.63,0.57,0.04,0.2,0.41,1.34,0.68,0.18,1.48,1.46,0.21
0.47,1.08,0.48,1.42,1.18,0.64,1.82,1.99,0.16,1.2,0.92
0.88,1.3,1.66,1.55,1.85,1.94,0.73,1.67,1.59,0.1,0.39
0.41,1.44,0.88,1.32,0.77,0.08,1.73,1.38,0.39,1.21,1.78
1.82,0.42,1.51,0.91,1.05,1.81,0.74,1,0.73,0.63,0.34
0.4,0.15,0.87,1.86,1.91,1.42,0.2,1.75,1.53,1.2,0.31
1.38,1.4,1.23,1.95,0.2,0.08,1.3,1.48,1.84,0.48,0.89
0.85,1.91,0.2,0.18,0.58,0.29,0.4,0.06,1.98,0.23,1.27
0.8,1.62,0.49,0.22,0.96,0.35,1.24,0.62,0.05,0.69,0.97
1.43,0.56,0.35,1.64,0.39,0.38,1.55,0.33,0.84,0.95,0.62
1.26,1.31,1.26,1.48,0.36,0.38,1.24,1.75,0.06,1.86,0.28
0.07,0.44,1.48,0.87,0.32,0.78,1.52,1.85,0.06,0.73,1.7
1.57,1.38,1.39,1.84,0.69,0.16,1.58,0.9,0.3,1.16,0.85
1.91,1.88,0.43,1.16,0.7,0.48,0.57,0.61,0.86,1.03,0.39
0.53,1.35,0.3,1.31,1.11,0.53,1.87,1.48,0.8,1.18,0.96
0.54,1.18,0.18,1,1.74,0.68,0.91,1.25,1.18,1.42,1.43
0.33,0.12,0.54,1.31,1.51,1.01,0.6,0.11,0.72,0.21,1.9
1.61,1.33,1.43,1.24,1.36,1.52,1.42,0.67,1.91,1.45,0.64
0.94,1.51,1.86,1.37,1.95,0.04,0.79,1.43,1.17,1.96,1.95
1.61,0.19,0.9,0.21,0.38,1.98,1.74,0.25,0.25,1.01,1.93
1.26,1.25,1.14,0.51,1.39,1.19,0.18,0.51,0.08,0.88,1.92
1.13,1.45,0.56,0.39,1.39,0.4,0.9,1.37,1.04,0.7,1.6
0.19,0.62,1.03,1.55,1.3,1.9,0.02,1.02,0.22,0.38,1.84
1.38,0.59,1.25,1.24,1.73,0.63,1.59,0.72,0.4,0.63,0.76
1.33,0.89,0.96,1.89,1.71,1.13,1.7,0.97,1.43,0.42,0.81
0.01,1.27,0.59,1.34,1.35,1.12,0.18,0.95,0.42,1.71,0.7
1.15,0,1.5,1.13,1.65,0.8,0.65,1.53,1.95,1.85,0.49
1.53,1.12,1.69,0.64,0.54,0.69,0.14,0.26,0.27,1.57,0.24
0.51,1.51,1,0.34,0.27,1.39,0.53,0.79,0.8,0.69,1.63
1.86,0.3,0.68,1.47,0.84,0.18,0.63,0.97,1.4,1.94,0.7
1.86,1.67,0.62,1.55,0.01,1.32,1.25,0.24,0.6,0.16,1.36
0.94,0.22,1.38,1.83,1.04,0.99,1.72,0.54,0.52,0.07,0.29
0.22,1.75,0.38,0.52,1.39,1.68,1.28,0.4,1.35,1.73,1.37
1.78,0.56,1.16,0.85,0.09,1.6,0.13,0.26,1.94,0.24,1.52
1.43,1.16,0.47,0.32,0.56,0.16,0.31,1.95,1.75,0.49,1.24
0.71,0.6,0.96,1.43,0.06,1.24,0.49,0.01,0.83,0.1,0.47
0.28,1.57,0.75,0.12,1.89,0.64,0.66,1.54,1.96,1.34,1.23
1.54,1.33,1.58,1.11,0.16,0.12,1.28,1.87,0.45,0.08,1.85
0.89,0.76,0.75,0.55,1.83,1.73,0.56,0.09,1.42,0.27,0.12
0.44,0.46,0.43,1.65,0.6,0.33,0.56,0.53,1.75,1.9,1.27
0.52,0.49,1.56,0.51,0.8,1.73,0.98,1.52,0.48,0.99,0.32
0.96,0.11,0.54,1.32,0.84,0.12,1.9,1.27,0.44,0.44,1.87
1.95,0.34,0.5,0.52,1.3,0.92,1.36,0.28,0.06,0.63,1.17
0.73,0.05,1.43,1.96,0.29,1.92,1.93,0.53,0.9,1.61,0.58
1.75,1.7,1.77,1.47,1.37,0.73,1.8,1.16,1.27,0.88,1.77
1.47,1.11,0.18,1.69,0.47,0.8,0.3,1.03,0.4,1.74,0.56
0.85,1.01,0.73,1.41,1.08,1.99,1.35,0.53,1.41,0.65,0.15
1.89,1.58,1.85,0.03,1.95,1.24,1.43,1.37,0.94,1.01,0.47
1.23,1.38,1.88,0.08,1.65,1.19,0.22,0.72,1.22,0.08,1.77
1.73,0.03,0.51,0.14,0.57,0.38,1.73,0.77,0.13,1.14,0.87
1.53,0.14,1.73,1.13,0.93,1.74,1.91,0.37,0.77,1.25,0.83
1.94,0.68,0.07,1.58,1.83,1.39,1.68,1.82,0.19,0.74,1.14
1.74,0.41,1.08,1.55,0.91,1.44,0.58,1.04,0.9,0.77,1.75
1.34,0.74,1.45,0.89,1.58,0.68,1.11,0.47,1.17,1.37,0.86
1.27,0.77,1.74,1.02,0.07,1.59,0.16,1.21,1.16,1.11,1.11
1.13,1.96,1.96,1.37,0.68,0.24,1.04,1.43,1.36,0.65,1.43
1.13,0.45,1.52,0.08,1.63,1.91,1.99,0.58,0.72,1.11,0.68
0.4,0.84,1.97,0.47,0.48,0.6,0.56,1.35,1.38,1.51,0.77
0.74,0.52,1.03,0.81,0.97,0.36,0.65,0.12,0.73,0.76,1.39
0.67,1.58,0.6,1.64,1.65,0.26,1.78,1.48,0.3,1.01,0.62
1.53,1.42,0.52,1.36,1.21,0.08,1.55,1.74,1.87,0.23,1.09
1.83,1.84,0.75,1.1,1.11,0.52,1.57,0.43,0.76,0.95,0.2
0.67,1.09,1.4,0.62,0.09,1.41,0.09,0.44,1.4,0.19,0.67
1.84,0.42,1.33,1.97,0.92,0.6,1.16,1.21,0.25,0.1,0.08
1.6,0.78,1.31,0.26,0.14,0.29,1.39,1.85,0.79,1.68,0.4
1.25,1.9,1.34,1.55,0.15,1.07,0.17,0.87,1.43,1.67,0.15
1.85,1.42,0.6,1.2,0.08,0.44,0.35,0.88,1.68,1.52,1.68
1.65,0.24,0.7,0.75,1.97,1.96,1.91,0.27,0.99,1.47,0.35
0.43,0.07,1.08,1.01,1.55,1.18,0.66,1.85,1.13,1.65,1.08
0.6,1.53,1.78,1.83,0.56,1.55,0.29,0.09,0.58,1.81,1.9
1.21,0.13,1.68,1.62,0.71,0,0.21,0.7,0.14,0.64,0.68
1.83,0.93,1.99,0.95,1.46,1.97,0.91,0.8,1.94,1.61,0.08
1.06,1.92,1.6,1.81,0.39,0.36,1.5,2,0.59,0.76,1.32
1.48,0.28,0.93,0.17,1.95,1.97,1.46,1.05,0.24,0.85,0.64
0.03,1.51,1.39,0.35,0.18,0.94,1.98,0.95,1.87,1.24,0.61
0.52,1.65,1.62,1.91,0.81,1.08,0.04,0.89,1.35,0.08,0.08
0.89,1.01,1.44,1.34,0.04,0.14,1.89,1.04,0.39,1.02,0.76
1.34,0.33,0.91,0.63,1.49,1.04,1.68,1.21,1.61,0.48,0.15
0.27,1.62,1.1,0.47,1.65,0.65,0.21,0.56,1.07,1.28,0.19
0.64,0.48,0.94,0.88,0.69,0.95,0.72,1.8,0.06,1.72,1.4
1.85,1.29,0.1,0.73,1.71,0.85,0.29,0.93,1.17,0.02,0.61
0.42,0.66,1.75,1.59,1.8,1.88,0.38,2,0.34,0.3,0.16
1.55,2,1.71,0.15,0.18,1.67,1.1,1.52,1.07,0.13,1.51
0.93,1.36,0.43,0.44,0.33,0.9,1.04,1.01,0.14,0.83,1.35
1.78,1.79,0.14,0.98,0.78,1.08,0.48,1.82,0.76,0.46,1.18
0.55,0.59,1.71,1.63,1.79,0.58,1.18,1.25,1.2,1.23,1.33
1.5,1.18,1.83,0.47,0.89,0.13,1.99,1.16,0.21,1.86,0.55
0.77,2,1.75,1.68,0.76,0.13,1.79,0.43,0.07,0.88,0.37
1.75,0.63,0.56,0.5,0.86,0.76,0.36,0.97,0.89,0.3,1.01
0.73,1.12,0.06,1.78,0.46,1.23,1.98,0.3,1.84,1.38,0.17
0.2,1.21,0.57,1.11,0.39,0.17,1.66,0.89,0.59,1.39,0.75
0.17,1.75,1.25,0.96,1.47,1.9,1.64,0.04,0.34,1.55,1.05
1.29,1.27,1.35,0.72,0.07,0.86,1.95,1.96,1.54,1.79,0.92
1.77,1.1,1.07,1.15,1.09,1.45,1.47,1.19,1.76,0.9,1.39
0.66,1.37,1.85,0.22,0.48,0.67,1.28,1.81,0.55,0.53,0.4
0.98,0.92,0.2,0.72,0.3,0.63,0.86,0.32,1.52,1.76,0.92
1.79,0.03,1.69,0.72,1.21,0.17,0.03,0.06,0.65,1.06,0.89
1.31,1.87,0.94,0.34,0.81,1.33,0.81,0.99,1.04,1.29,0.95
1.85,1.46,1.46,0.52,0.33,1.9,1.88,0.28,1.19,0.32,1.47
0.93,1.94,1.79,0.87,0.71,1.67,0.58,1.19,0.46,1.61,0.82
1.77,1.08,1.46,1.84,1.97,0.84,1.68,1.98,1.64,1.62,0.48
1.54,1.54,1.5,1.89,1.68,0.13,0.05,1.05,0.66,1.01,1.38
1.79,0.06,0.18,1.12,0.44,0.92,0.24,0.24,1.31,1.25,0.92
0.74,1.24,1,1.1,1.05,1.82,0.64,1.95,1.58,0.36,1.1
0.2,0.64,1.77,1.73,1.97,1.71,1.56,1.47,1.89,0.65,0.62
